…
I start defining an income table with three distributions progressively more unequal. r1 is a sample of a normal distribution, and r2 and r3 are samples of right skewed distributions obtaining powering 10 with the values of a normal distribution. The standard deviation of r3 is higher than r2, resulting in higher inequality.

set.seed(1111)
income <- tibble(id = 1:10000,
                 r1 = rnorm(10000, mean = 10000, sd = 100),
                 r2 = 10^rnorm(10000, mean = 4, sd = 0.2),
                 r3 = 10^rnorm(10000, mean = 4, sd = 0.5))

Let’s define an income_long tidy table with pivot_longer:

income_long <- income |>
  pivot_longer(-id)
income_long

## # A tibble: 30,000 × 3
##       id name   value
##    <int> <chr>  <dbl>
##  1     1 r1     9991.
##  2     1 r2    23019.
##  3     1 r3    15224.
##  4     2 r1    10132.
##  5     2 r2     9399.
##  6     2 r3    90306.
##  7     3 r1    10064.
##  8     3 r2     5118.
##  9     3 r3    92768.
## 10     4 r1    10117.
## # ℹ 29,990 more rows
…
