…
library(BAdatasetsSpatial)

Distances between Locations

Let’s start finding the values of the parameters with the distances between locations. The latitude, longitude and population of each capital of province is listed in the cap_provincia_es table.

data("cap_provincia_es.rd")

## Warning in data("cap_provincia_es.rd"): data set 'cap_provincia_es.rd' not
## found

cap_provincia_es

## # A tibble: 52 × 9
##    comunidad     provincia poblacion latitud longitud altitud habitantes hombres
##    <chr>         <chr>     <chr>       <dbl>    <dbl>   <dbl>      <dbl>   <dbl>
##  1 Castilla La … Albacete  Albacete     39.0  -1.86     686.      169716   83838
##  2 Valencia      Alicante… Alicante…    38.3  -0.481     16.6     334757  162853
##  3 Andalucía     Almería   Almería      36.8  -2.47      27.0     188810   92396
##  4 Extremadura   Badajoz   Badajoz      38.9  -6.97     192.      148334   72085
##  5 Catalunya     Barcelona Barcelona    41.4   2.17      20.0    1621537  771570
##  6 País Vasco    Vizcaya   Bilbao       43.3  -2.92      17.9     354860  168019
##  7 Castilla León Burgos    Burgos       42.3  -3.70     866.      178966   86417
##  8 Valencia      Castelló… Castelló…    40.0  -0.0377    36       180005   88979
##  9 Ceuta y Meli… Ceuta     Ceuta        35.9  -5.32      13.5      78674   40118
## 10 Castilla La … Ciudad R… Ciudad R…    39.0  -3.93     637.       74014   35073
## # ℹ 42 more rows
## # ℹ 1 more variable: mujeres <dbl>
…
