…
With stretch we can get correlations as a long table:

stretch(r_df)

## # A tibble: 121 × 3
##    x     y          r
##    <chr> <chr>  <dbl>
##  1 mpg   mpg   NA    
##  2 mpg   cyl   -0.852
##  3 mpg   disp  -0.848
##  4 mpg   hp    -0.776
##  5 mpg   drat   0.681
##  6 mpg   wt    -0.868
##  7 mpg   qsec   0.419
##  8 mpg   vs     0.664
##  9 mpg   am     0.600
## 10 mpg   gear   0.480
## # … with 111 more rows
…
