…
I have replaced points by semicolons in the whole file before any other operation:

data_github <- data_github |>
  mutate(keywords = str_replace_all(keywords, "\\.", ";"))

As each article has a different number of keywords, I need to set this dataset in long format, so it becomes tidy data. I use for this tidyr::separate_longer_delim() and then I rename the keyword column with dplyr::rename().

art_keyword <- data_github |>
  separate_longer_delim(keywords, "; ") |>
  rename(keyword = keywords) # 19983 keywords
art_keyword

## # A tibble: 19,985 × 2
##       id keyword              
##    <dbl> <chr>                
##  1     1 LLM                  
##  2     1 decoding             
##  3     1 sampling             
##  4     1 truncation           
##  5     1 inference            
##  6     1 information-theoretic
##  7     1 information-theory   
##  8     1 hyperparameterless   
##  9     1 hyperparameter-free  
## 10     1 entropy              
## # ℹ 19,975 more rows
…
removing spaces at the beginning and the end, and multiple spaces in the middle with stringr::str_squish().

art_keyword <- art_keyword |>
  mutate(keyword = tolower(keyword)) |>
  mutate(keyword = str_squish(keyword))

And finally I retrieve all the distinct keywords we can find in the dataset in the raw_keywords table.

raw_keywords <- art_keyword |>
  select(keyword) |>
  distinct()
raw_keywords

## # A tibble: 9,275 × 1
##    keyword              
##    <chr>                
##  1 llm                  
##  2 decoding             
##  3 sampling             
##  4 truncation           
##  5 inference            
##  6 information-theoretic
##  7 information-theory   
##  8 hyperparameterless   
##  9 hyperparameter-free  
## 10 entropy              
## # ℹ 9,265 more rows
…
# get row/col indices where distance is low (excluding the diagonal)
low_idx <- which(string_matrix < threshold & string_matrix > 0, arr.ind = TRUE)

# turn into a readable data frame
pairs <- tibble(
  word1 = rownames(string_matrix)[low_idx[, 1]],
  word2 = colnames(string_matrix)[low_idx[, 2]],
  distance = string_matrix[low_idx]
) |>
  filter(low_idx[,1] < low_idx[,2]) |>
  arrange(distance)

pairs

## # A tibble: 653 × 3
##    word1                                         word2                  distance
##    <chr>                                         <chr>                     <dbl>
##  1 reinforcement learning with verifiable reward reinforcement learnin…  0.00725
##  2 machine learning interatomic potential        machine learning inte…  0.00855
##  3 referring expression comprehension            referring expression …  0.00952
##  4 structure representation learning             structured representa…  0.00980
##  5 reinforcement learning finetuning             reinforcement learnin…  0.00980
##  6 multimodal large language models              multi-modal large lan…  0.0101 
##  7 multi-modal large language model              multi-modal large lan…  0.0101 
##  8 knowledge graph foundation models             knowledge graph found…  0.0101 
##  9 multimodel large language models              multi-model large lan…  0.0101 
## 10 multimodal large language models              multimodal large lang…  0.0104 
## # ℹ 643 more rows
…
I have uploaded the manually generated table of paired keywords and representatives in a Github gist, together with the original article-keyword table.

Defining Representatives

Let’s read the table of paired keywords, removing the rows with no representative. These rows correspond to paired keywords with small distance but with different meaning, for instance dataset creation versus dataset curation.

paired_representatives_url <- "https://gist.githubusercontent.com/jmsallan/ee7e27a432950004e31888f04eaa74ba/raw/5a9a17000e0373d935281a76e34f03c9ed2c5f94/paired_keywords_representatives.csv"
paired_representatives <- read_csv(paired_representatives_url,
                                   show_col_types = FALSE)
paired_representatives <- paired_representatives |>
  filter(!is.na(representative))
paired_representatives

## # A tibble: 639 × 3
##    word1                    word2                   representative         
##    <chr>                    <chr>                   <chr>                  
##  1 3d gaussian splatting    3d gaussian spaltting   3d gaussian splatting  
##  2 3d generation            3d genearation          3d generation          
##  3 3d hand reconstructin    3d hand reconstruction  3d hand reconstruction 
##  4 3d large language models 3d large language model 3d large language model
##  5 3d scene understanding   3d scene undertstanding 3d scene understanding 
##  6 abstractions             abstraction             abstraction            
##  7 action representations   action representation   action representation  
##  8 activations              activation              activation             
##  9 adaptations              adaptation              adaptation             
## 10 adaptive optimizer       adaptive optimizers     adaptive optimizer     
## # ℹ 629 more rows

The significant pairings are stored in the paired_representatives table, which has 639 rows. I need to transform this table as tidy data, including all keyword-representative correspondences:

paired_representatives <-  paired_representatives |>
  pivot_longer(-representative, names_to = "word", values_to = "keyword") |>
  select(- word) |>
  distinct()
paired_representatives

## # A tibble: 1,020 × 2
##    representative          keyword                 
##    <chr>                   <chr>                   
##  1 3d gaussian splatting   3d gaussian splatting   
##  2 3d gaussian splatting   3d gaussian spaltting   
##  3 3d generation           3d generation           
##  4 3d generation           3d genearation          
##  5 3d hand reconstruction  3d hand reconstructin   
##  6 3d hand reconstruction  3d hand reconstruction  
##  7 3d large language model 3d large language models
##  8 3d large language model 3d large language model 
##  9 3d scene understanding  3d scene understanding  
## 10 3d scene understanding  3d scene undertstanding 
## # ℹ 1,010 more rows
…
We assign the representative to each element of raw_keywords_paired with a merge with paired_representatives and join the two tables in raw_keywords_representative.

raw_keywords_paired <- raw_keywords_paired |>
  left_join(paired_representatives, by = "keyword")

raw_keywords_representative <- bind_rows(raw_keywords_paired, raw_keywords_not_paired)

The resulting table has 9275 rows. For a sanity check, I look for distinct values of keyword.

# number of raw keywords
raw_keywords_representative |>
  select(keyword) |>
  distinct()

## # A tibble: 9,275 × 1
##    keyword              
##    <chr>                
##  1 llm                  
##  2 sampling             
##  3 information-theory   
##  4 efficient            
##  5 video generation     
##  6 kernel methods       
##  7 point processes      
##  8 large language models
##  9 llm evaluation       
## 10 large language model 
## # ℹ 9,265 more rows

The unique values of keyword are the same as table rows, so keywords are not duplicated. Let’s see the number of representatives:

raw_keywords_representative |>
  select(representative) |>
  distinct()

## # A tibble: 8,698 × 1
##    representative      
##    <chr>               
##  1 large language model
##  2 sampling            
##  3 information theory  
##  4 efficient           
##  5 video generation    
##  6 kernel method       
##  7 point process       
##  8 llm-based agent     
##  9 decision making     
## 10 evaluation          
## # ℹ 8,688 more rows

Let’s see the largest families of representatives:

raw_keywords_representative |> 
  group_by(representative) |> 
  count(sort = TRUE)

## # A tibble: 8,698 × 2
## # Groups:   representative [8,698]
##    representative                      n
##    <chr>                           <int>
##  1 large language model               17
##  2 vision language model              10
##  3 multimodal large language model     9
##  4 computer use agent                  7
##  5 multiagent system                   6
##  6 reinforcement learning              6
##  7 vision-language-action model        6
##  8 diffusion large language model      5
##  9 diffusion model                     5
## 10 large vision language model         5
## # ℹ 8,688 more rows
…
Here can be appreciated the different sources of variations (misspellings, plurals, use of abbreviation and odd variants) that call for keyword normalization.

Adding Representatives to Article Keyword Table

The final step is adding representatives to the article-keyword table:

art_keyword_representative <- art_keyword |>
  left_join(raw_keywords_representative, by = "keyword") |>
  distinct()

art_keyword_representative

## # A tibble: 19,976 × 3
##       id keyword               representative       
##    <dbl> <chr>                 <chr>                
##  1     1 llm                   large language model 
##  2     1 decoding              decoding             
##  3     1 sampling              sampling             
##  4     1 truncation            truncation           
##  5     1 inference             inference            
##  6     1 information-theoretic information-theoretic
##  7     1 information-theory    information theory   
##  8     1 hyperparameterless    hyperparameterless   
##  9     1 hyperparameter-free   hyperparameter-free  
## 10     1 entropy               entropy              
## # ℹ 19,966 more rows
…
