…
we define a vector with components equal to the component of move if dim == d, and zero otherwise. In R, this can be obtained with ifelse(dim == d, move, 0).

we use cumsum() to obtain the position in the dimension at each step doing cumsum(ifelse(dim == d, move, 0)).

we add the position zero at the beginning, as the process starts at the origin of coordinates: c(0, cumsum(ifelse(dim == d, move, 0))).

we wrap the list of d vectors into a tibble of d columns using map_dfc() from purrr.

Let’s obtain a random walk of 100 steps in a 2-dimensional lattice:

set.seed(1111)
rw <- random_walk()
rw

## # A tibble: 101 × 2
##     ...1  ...2
##    <dbl> <dbl>
##  1     0     0
##  2     0    -1
##  3     0     0
##  4     0    -1
##  5     0    -2
##  6     0    -3
##  7    -1    -3
##  8    -1    -2
##  9    -1    -3
## 10    -1    -2
## # ℹ 91 more rows
…
