…
We reach the node data table using activate to compute two measures of node centrality: degree and betweenness. Nodes with high values of these measures are considered central nodes in the network. To allow comparison between network, I am normalizing these measures using the graph_order function, that returns the number of nodes of the graph. As the graph is directed, I am considering degree the sum of in- and out-degree.

ryanair <- ryanair %>%
  activate(nodes) %>%
  mutate(deg = (centrality_degree(mode = "in") + centrality_degree(mode = "out"))/(2*(graph_order() - 1)),
         btw = centrality_betweenness()/((graph_order() - 1)*(graph_order() - 2)))

Here I am using the as_tibble() function to get the node table and present the airports of highest degree:

ryanair %>%
  activate(nodes) %>%
  as_tibble() %>%
  arrange(-deg)

## # A tibble: 176 × 3
##    name    deg    btw
##    <chr> <dbl>  <dbl>
##  1 STN   0.709 0.365 
##  2 DUB   0.434 0.0802
##  3 CRL   0.429 0.106 
##  4 BGY   0.36  0.0404
##  5 AGP   0.286 0.0301
##  6 PMI   0.28  0.0277
##  7 BVA   0.263 0.0190
##  8 CIA   0.257 0.0113
##  9 GRO   0.251 0.0323
## 10 HHN   0.246 0.0244
## # … with 166 more rows

And the airports of highest betweenness:

ryanair %>%
  activate(nodes) %>%
  as_tibble() %>%
  arrange(-btw)

## # A tibble: 176 × 3
##    name    deg    btw
##    <chr> <dbl>  <dbl>
##  1 STN   0.709 0.365 
##  2 CRL   0.429 0.106 
##  3 DUB   0.434 0.0802
##  4 OPO   0.206 0.0457
##  5 MRS   0.194 0.0440
##  6 BGY   0.36  0.0404
##  7 BCN   0.223 0.0365
##  8 GRO   0.251 0.0323
##  9 AGP   0.286 0.0301
## 10 PMI   0.28  0.0277
## # … with 166 more rows
…
Now I am computing the normalized measures of degree and betweenness:

klm_own <- klm_own %>%
  activate(nodes) %>%
  mutate(deg = (centrality_degree(mode = "in") + centrality_degree(mode = "out"))/(2*(graph_order() - 1)),
         btw = centrality_betweenness()/((graph_order() - 1)*(graph_order() - 2)))

We observe that the Amsterdam-Schipol airport (AMS) has the highest values of degree and betweenness. These values are close to one for this airport, suggesting an almost star network centered in AMS.

klm_own %>%
  activate(nodes) %>%
  as_tibble() %>%
  arrange(-btw)

## # A tibble: 107 × 3
##    name      deg     btw
##    <chr>   <dbl>   <dbl>
##  1 AMS   0.892   0.998  
##  2 AUH   0.0189  0.0189 
##  3 DOH   0.0189  0.0189 
##  4 EZE   0.0189  0.0189 
##  5 KUL   0.0189  0.0189 
##  6 SIN   0.0189  0.0189 
##  7 TPE   0.0189  0.0189 
##  8 AUA   0.00943 0.00943
##  9 CUR   0.0142  0.00943
## 10 HRE   0.00943 0.00943
## # … with 97 more rows
…
