…
Strategic use of color: The use of direct labels eliminates the need to assign a color for each continent, that the reader has to check in a legend box. Then, i can use the color strategically to stand out Asia and Africa to the rest of continents, to reinforce the message I am presenting in the title and subtitle.

Ranking of countries with lowest fertility rate

The next job is to evaluate the evolution of fertility rate between 1995 and 2020. For doing so, I will examine which are the countries with a population larger than one million people with lowest fertility rate in 2020, and compare those values with 1995 values.

Let’s filter the wb_indicators dataset and arrange by increasing order of fertility rate:

wb_indicators |> 
  filter(date == 2020, SP.POP.TOTL >= 1e06) |>
  arrange(SP.DYN.TFRT.IN) |>
  select(country, date, SP.DYN.TFRT.IN, SP.POP.TOTL)

## # A tibble: 160 × 4
##    country               date SP.DYN.TFRT.IN SP.POP.TOTL
##    <chr>                <dbl>          <dbl>       <dbl>
##  1 Korea, Rep.           2020          0.837    51836239
##  2 Hong Kong SAR, China  2020          0.868     7481000
##  3 Puerto Rico           2020          0.9       3281538
##  4 Singapore             2020          1.1       5685807
##  5 Ukraine               2020          1.22     44132049
##  6 Spain                 2020          1.23     47365655
##  7 Italy                 2020          1.24     59438851
##  8 China                 2020          1.28   1411100000
##  9 North Macedonia       2020          1.3       2072531
## 10 Cyprus                2020          1.33      1237537
## # … with 150 more rows
…
