…
In this post, I will present the workflow to create an horizontal barchart presenting a set of values. A good practice for those tables is to arrange bars in decreasing order of the value. We’ll see that we can to that with the fct_reorder function of forcats, included in the tidyverse.

I will be using the txhousing dataset, included in tidyverse, so I don’t need more than that:

library(tidyverse)

Let’s see which cities of Texas have the most expensive housing. For each city, I am computing a price variable, equal to the median of median prices from 2010 onwards:

txhousing |>
  filter(year >= 2010) |>
  group_by(city) |>
  summarise(price = median(median, na.rm = TRUE)) |>
  arrange(-price)

## # A tibble: 46 × 2
##    city                price
##    <chr>               <dbl>
##  1 Collin County      223100
##  2 Midland            212000
##  3 Austin             210200
##  4 Fort Bend          209800
##  5 Montgomery County  197100
##  6 NE Tarrant County  180000
##  7 South Padre Island 180000
##  8 Galveston          178600
##  9 Denton County      175300
## 10 Dallas             174200
## # … with 36 more rows
…
