…
I retrieved air quality data from measurement stations posted on the Barcelona Open Data website.

I tidyed data so that each row contains the value measurement of a specific pollutant, from a specific station and from a specific hour.

I filtered data going from 14 March to 29 May from 2020 to 2021.
. As hourly data is extremely noisy, I have averaged the level of contaminant on a daily basis. The day of measurement is in date.

To make the plots, I have created a plot_date variable equal to the same date as 2025, and the year as factor.

The result is in the aq_tw_daily dataset.

aq_tw_daily

## # A tibble: 19,821 × 6
##    date       plot_date  year  station  pollutant value
##    <date>     <date>     <fct> <chr>        <dbl> <dbl>
##  1 2020-03-14 2025-03-14 2020  Poblenou         7  3.91
##  2 2020-03-15 2025-03-15 2020  Poblenou         7  3.26
##  3 2020-03-16 2025-03-16 2020  Poblenou         7  1.38
##  4 2020-03-17 2025-03-17 2020  Poblenou         7  1.61
##  5 2020-03-18 2025-03-18 2020  Poblenou         7  9.76
##  6 2020-03-19 2025-03-19 2020  Poblenou         7  9   
##  7 2020-03-20 2025-03-20 2020  Poblenou         7  4.74
##  8 2020-03-21 2025-03-21 2020  Poblenou         7  1.52
##  9 2020-03-22 2025-03-22 2020  Poblenou         7  1.54
## 10 2020-03-23 2025-03-23 2020  Poblenou         7  1.83
## # ℹ 19,811 more rows
…
