…
eu_iso2c <- c("AT", "BE", "BG", "HR", "CY", "CZ",
              "DK", "EE", "FI", "FR", "DE", "GR",
              "HU", "IE", "IT", "LV", "LU", "MT",
              "NL", "PL", "PT", "RO", "SK", "SI",
              "ES", "SE")

gini_eu <- gini |>
  filter(iso2c %in% eu_iso2c, date %in% c(2010, 2018)) |>
  select(iso2c, date, SI.POV.GINI)

The gini_eu table contains the Gini indices of EU countries of 2010 and 2018:

gini_eu

## # A tibble: 52 × 3
##    iso2c  date SI.POV.GINI
##    <chr> <dbl>       <dbl>
##  1 AT     2018        30.8
##  2 AT     2010        30.3
##  3 BE     2018        27.2
##  4 BE     2010        28.4
##  5 BG     2018        41.3
##  6 BG     2010        35.7
##  7 HR     2018        29.7
##  8 HR     2010        32.4
##  9 CY     2018        32.7
## 10 CY     2010        31.5
## # ℹ 42 more rows
…
As I am focusing in visualizing variations, it can be of interest to show if Gini index has increased or decreased. That’s why I have created an ev variable, equal to the year when Gini index is higher.

gini_eu_wide <- gini_eu |>
  select(iso2c, date, SI.POV.GINI) |>
  pivot_wider(names_from = "date", values_from = "SI.POV.GINI") |>
  mutate(iso2c = as.factor(iso2c)) |>
  mutate(iso2c = fct_reorder(iso2c, `2018`)) |>
  mutate(ev = ifelse(`2018` > `2010`, "2018", "2010"))

That’s how gini_eu_wide looks like:

gini_eu_wide

## # A tibble: 26 × 4
##    iso2c `2018` `2010` ev   
##    <fct>  <dbl>  <dbl> <chr>
##  1 AT      30.8   30.3 2018 
##  2 BE      27.2   28.4 2010 
##  3 BG      41.3   35.7 2018 
##  4 HR      29.7   32.4 2010 
##  5 CY      32.7   31.5 2018 
##  6 CZ      25     26.6 2010 
##  7 DK      28.2   27.2 2018 
##  8 EE      30.3   32   2010 
##  9 FI      27.3   27.7 2010 
## 10 FR      32.4   33.7 2010 
## # ℹ 16 more rows
…
