…
## Rows: 3192 Columns: 8
## ── Column specification ────────────────────────────────────────────────────────
## Delimiter: ","
## chr (5): Catalunya, nacionalitat, sexe, edat quinquennal, concepte
## dbl (2): any, valor
## lgl (1): estat
## 
## ℹ Use `spec()` to retrieve the full column specification for this data.
## ℹ Specify the column types or set `show_col_types = FALSE` to quiet this message.

pop

## # A tibble: 3,192 × 8
##      any catalunya nacionalitat sexe  edat_quinquennal concepte estat  valor
##    <dbl> <chr>     <chr>        <chr> <chr>            <chr>    <lgl>  <dbl>
##  1  1991 Catalunya espanyola    homes de 0 a 4 anys    població NA    143821
##  2  1991 Catalunya espanyola    homes de 5 a 9 anys    població NA    172906
##  3  1991 Catalunya espanyola    homes de 10 a 14 anys  població NA    235146
##  4  1991 Catalunya espanyola    homes de 15 a 19 anys  població NA    262054
##  5  1991 Catalunya espanyola    homes de 20 a 24 anys  població NA    246040
##  6  1991 Catalunya espanyola    homes de 25 a 29 anys  població NA    232504
##  7  1991 Catalunya espanyola    homes de 30 a 34 anys  població NA    217492
##  8  1991 Catalunya espanyola    homes de 35 a 39 anys  població NA    200722
##  9  1991 Catalunya espanyola    homes de 40 a 44 anys  població NA    199194
## 10  1991 Catalunya espanyola    homes de 45 a 49 anys  població NA    181117
## # ℹ 3,182 more rows
…
grups_ord <- grups[c(2, 11, 3:10, 12:18, 1)]

pop <- pop |>
  mutate(age_groups = factor(age_groups, ordered = TRUE, levels = grups_ord))

Finally, we can remove the edat_quinquennal and valor columns, which have been replaced by age_group and prop.

pop <- pop |>
  select(-c(edat_quinquennal, valor))

This is how the dataset looks like after formatting and adjusting:

pop

## # A tibble: 2,016 × 5
##      any nacionalitat sexe    prop age_groups
##    <dbl> <chr>        <chr>  <dbl> <ord>     
##  1  1991 espanyola    homes 0.0119 "  0 - 4" 
##  2  1991 espanyola    homes 0.0143 "  5 - 9" 
##  3  1991 espanyola    homes 0.0194 "10 - 14" 
##  4  1991 espanyola    homes 0.0216 "15 - 19" 
##  5  1991 espanyola    homes 0.0203 "20 - 24" 
##  6  1991 espanyola    homes 0.0192 "25 - 29" 
##  7  1991 espanyola    homes 0.0179 "30 - 34" 
##  8  1991 espanyola    homes 0.0166 "35 - 39" 
##  9  1991 espanyola    homes 0.0164 "40 - 44" 
## 10  1991 espanyola    homes 0.0149 "45 - 49" 
## # ℹ 2,006 more rows
…
pop_excess <- pop |>
  pivot_wider(names_from = "sexe", values_from = "prop") |>
  mutate(min_m = ifelse(homes < dones, homes, dones),
         min_w = min_m,
         excess_m = ifelse(homes > dones, homes - dones, 0),
         excess_w = ifelse(homes < dones, dones - homes, 0)) |>
  select(-c(homes, dones)) |>
  pivot_longer(min_m:excess_w, 
               names_to = "gender", values_to = "prop") |>
  mutate(gender = factor(gender, 
                         levels = c("excess_m", "min_m", "excess_w", "min_w"), 
                         ordered = TRUE))
pop_excess

## # A tibble: 4,032 × 5
##      any nacionalitat age_groups gender       prop
##    <dbl> <chr>        <ord>      <ord>       <dbl>
##  1  1991 espanyola    "  0 - 4"  min_m    0.0110  
##  2  1991 espanyola    "  0 - 4"  min_w    0.0110  
##  3  1991 espanyola    "  0 - 4"  excess_m 0.000842
##  4  1991 espanyola    "  0 - 4"  excess_w 0       
##  5  1991 espanyola    "  5 - 9"  min_m    0.0133  
##  6  1991 espanyola    "  5 - 9"  min_w    0.0133  
##  7  1991 espanyola    "  5 - 9"  excess_m 0.000940
##  8  1991 espanyola    "  5 - 9"  excess_w 0       
##  9  1991 espanyola    "10 - 14"  min_m    0.0181  
## 10  1991 espanyola    "10 - 14"  min_w    0.0181  
## # ℹ 4,022 more rows
…
