…
Machine learning algorithms are explainable when it is possible to track its internal processes: how they make decisions, which variables are using and how variables influence model results. These explanations must be understood not only by developers, but also by users or regulators.

In this post, I will present how we can make explainable decision trees and regression based predictive models. I will apply some of these models to a classification job, and present how can we make these models explainable.

I will use the tidymodels framework, the rpart.plot package to plot decision trees built with rpart, and the vip package for variable importance plots.

library(tidymodels)
library(rpart.plot)
library(vip)

The dataset used is cat_adoption. It contains data from a subset of the cats at the animal shelter in Long Beach, California, USA. The job consists in predicting the event variable. It is equal to one when the cat is being homed or returned to its original location (i.e., owner or community). It is equal to zero when the cat is being transferred to another shelter or dying.

cat_adoption

## # A tibble: 2,257 × 20
##     time event sex    neutered intake_condition intake_type   latitude longitude
##    <dbl> <dbl> <fct>  <fct>    <fct>            <fct>            <dbl>     <dbl>
##  1    17     1 male   yes      fractious        owner_surren…     33.8     -118.
##  2    98     1 male   yes      normal           stray             33.8     -118.
##  3    15     0 male   yes      ill_moderatete   owner_surren…     33.8     -118.
##  4    72     1 female yes      fractious        owner_surren…     33.8     -118.
##  5    22     0 male   yes      normal           owner_surren…     33.8     -118.
##  6    66     1 male   yes      normal           owner_surren…     33.8     -118.
##  7   200     1 female yes      other            other             33.9     -118.
##  8     9     0 female yes      normal           owner_surren…     33.9     -118.
##  9    45     1 male   yes      ill_mild         stray             33.8     -118.
## 10    38     1 male   no       ill_mild         stray             33.9     -118.
## # ℹ 2,247 more rows
## # ℹ 12 more variables: black <int>, brown <int>, brown_tabby <int>,
## #   calico <int>, cream <int>, gray <int>, gray_tabby <int>, orange <int>,
## #   orange_tabby <int>, tan <int>, tortie <int>, white <int>
…
lr_model <- workflow() |>
  add_recipe(rec_cats_lm) |>
  add_model(lr) |>
  fit(training(split))

rr_model <- workflow() |>
  add_recipe(rec_cats_lm) |>
  add_model(rr) |>
  fit(training(split))

We can obtain variable importance for each model with the vi() function. These variable importance factors are based on regression coefficients of variables. These coefficients can be positive or negative.

vi(lr_model)

## # A tibble: 24 × 3
##    Variable               Importance Sign 
##    <chr>                       <dbl> <chr>
##  1 neutered_yes               10.3   NEG  
##  2 time                        2.88  NEG  
##  3 tan                         1.65  NEG  
##  4 calico                      1.59  NEG  
##  5 intake_type_other           1.46  NEG  
##  6 brown                       1.40  POS  
##  7 tortie                      1.12  POS  
##  8 white                       0.979 NEG  
##  9 intake_condition_other      0.769 NEG  
## 10 gray_tabby                  0.620 NEG  
## # ℹ 14 more rows

vi(rr_model)

## # A tibble: 25 × 3
##    Variable          Importance Sign 
##    <chr>                  <dbl> <chr>
##  1 neutered_yes           2.52  NEG  
##  2 tan                    1.53  NEG  
##  3 intake_type_other      1.31  NEG  
##  4 tortie                 1.30  POS  
##  5 calico                 1.24  NEG  
##  6 sex_unknown            1.23  POS  
##  7 neutered_unknown       1.23  POS  
##  8 brown                  1.22  POS  
##  9 white                  0.599 NEG  
## 10 orange                 0.486 POS  
## # ℹ 15 more rows
…
