…
<img src="{{< blogdown/postref >}}index_files/figure-html/unnamed-chunk-7-1.png" width="672" style="display: block; margin: auto;" />

The representation of the variables shows that the values of population are inconsistent, as the number of people in the Armed Forces and unemployed are much larger than total population.

A Better longley Dataset: longley2

In the RXshrink package, we can find a longley2 dataset. It includes data from the Employment and Training Report of the President, 1976 compiled by Art Hoerl, from the University of Delaware. This data frame contains some different (“corrected”) numerical values from those used by Longley (1967) and the added years of 1963-1975.

tibble(longley2)

## # A tibble: 29 × 7
##    GNP.deflator Unemployed Armed.Forces Population  Year Employed   GNP
##           <dbl>      <int>        <int>      <int> <int>    <int> <dbl>
##  1         83.6       2311         1591     103418  1947    59805  233.
##  2         89         2276         1459     104527  1948    60632  259.
##  3         88.1       3637         1617     105611  1949    59640  258 
##  4         89.9       3288         1650     106645  1950    60645  286.
##  5         95.9       2055         3100     107721  1951    62673  330.
##  6         97.2       1883         3592     108823  1952    63135  347.
##  7         98.6       1834         3545     110601  1953    64508  366.
##  8        100         3532         3350     111671  1954    63288  366.
##  9        102.        2852         3049     112732  1955    65541  399.
## 10        105.        2750         2857     113811  1956    67298  421.
## # ℹ 19 more rows
…
longley2_mod <- longley2 |>
  mutate(deflacted_gnp = GNP*100/GNP.deflator,
         activity_rate = (Unemployed + Employed + Armed.Forces)*100/Population,
         unemployment_rate = Unemployed*100/(Unemployed + Employed + Armed.Forces),
         inflation = (GNP.deflator - lag(GNP.deflator))*100/lag(GNP.deflator),
         deflacted_gnp_growth = (deflacted_gnp - lag(deflacted_gnp))*100/lag(deflacted_gnp)) |>
  filter(!is.na(inflation)) |>
  rename(year = Year) |>
  select(year, deflacted_gnp_growth, activity_rate, unemployment_rate, inflation)

All these variables are listed in longley2_mod.

tibble(longley2_mod)

## # A tibble: 28 × 5
##     year deflacted_gnp_growth activity_rate unemployment_rate inflation
##    <int>                <dbl>         <dbl>             <dbl>     <dbl>
##  1  1948                4.54           61.6              3.54      6.46
##  2  1949                0.593          61.4              5.60     -1.01
##  3  1950                8.71           61.5              5.01      2.04
##  4  1951                8.16           63.0              3.03      6.67
##  5  1952                3.74           63.0              2.74      1.36
##  6  1953                3.95           63.2              2.62      1.44
##  7  1954               -1.35           62.8              5.03      1.42
##  8  1955                6.77           63.4              3.99      2.10
##  9  1956                2.06           64.1              3.77      3.23
## 10  1957                1.87           63.6              3.90      3.32
## # ℹ 18 more rows
…
