…
Using the froll family of functions of data.table.

I will also load the tidyr and ggplot2 packages for data handling and visualization.

library(ggplot2)
library(dplyr)
library(tidyr)
library(zoo)
library(data.table)

As example of temporal data, I am using the txhousing dataset of ggplot2. This dataset contains information about the housing market in Texas provided by the Texas A&M University real estate center, https://www.recenter.tamu.edu/.

txhousing

## # A tibble: 8,602 × 9
##    city     year month sales   volume median listings inventory  date
##    <chr>   <int> <int> <dbl>    <dbl>  <dbl>    <dbl>     <dbl> <dbl>
##  1 Abilene  2000     1    72  5380000  71400      701       6.3 2000 
##  2 Abilene  2000     2    98  6505000  58700      746       6.6 2000.
##  3 Abilene  2000     3   130  9285000  58100      784       6.8 2000.
##  4 Abilene  2000     4    98  9730000  68600      785       6.9 2000.
##  5 Abilene  2000     5   141 10590000  67300      794       6.8 2000.
##  6 Abilene  2000     6   156 13910000  66900      780       6.6 2000.
##  7 Abilene  2000     7   152 12635000  73500      742       6.2 2000.
##  8 Abilene  2000     8   131 10710000  75000      765       6.4 2001.
##  9 Abilene  2000     9   104  7615000  64500      771       6.5 2001.
## 10 Abilene  2000    10   101  7040000  59300      764       6.6 2001.
## # … with 8,592 more rows
…
