…
table <- table |>
  mutate(dia = 1:31)

Now we are ready to set the table in long format. In this format, we don’t need to keep the non-existing days, so we remove them with tidyr::drop_na().

table <- table |>
  pivot_longer(-dia, names_to = "var", values_to = "tiempo") |>
  drop_na()

Let’s take a look at the result:

table

## # A tibble: 730 × 3
##      dia var     tiempo
##    <int> <chr>   <chr> 
##  1     1 1_orto  817   
##  2     1 1_ocaso 1732  
##  3     1 2_orto  803   
##  4     1 2_ocaso 1807  
##  5     1 3_orto  726   
##  6     1 3_ocaso 1841  
##  7     1 4_orto  735   
##  8     1 4_ocaso 2016  
##  9     1 5_orto  649   
## 10     1 5_ocaso 2048  
## # ℹ 720 more rows

We can split the values of var with tidyr::separate():

table <- table |>
  separate(var, sep = "_", into = c("mes", "evento"))
table

## # A tibble: 730 × 4
##      dia mes   evento tiempo
##    <int> <chr> <chr>  <chr> 
##  1     1 1     orto   817   
##  2     1 1     ocaso  1732  
##  3     1 2     orto   803   
##  4     1 2     ocaso  1807  
##  5     1 3     orto   726   
##  6     1 3     ocaso  1841  
##  7     1 4     orto   735   
##  8     1 4     ocaso  2016  
##  9     1 5     orto   649   
## 10     1 5     ocaso  2048  
## # ℹ 720 more rows

There are several ways of picking the hour and minute from this time format. I have chosen to transform it into numeric and to use the rounding floor() function to get the hour hora and get the value of minutes min from h:

table <- table |>
  mutate(tiempo = as.numeric(tiempo),
         hora = floor(tiempo/100),
         min = tiempo - hora*100)
table

## # A tibble: 730 × 6
##      dia mes   evento tiempo  hora   min
##    <int> <chr> <chr>   <dbl> <dbl> <dbl>
##  1     1 1     orto      817     8    17
##  2     1 1     ocaso    1732    17    32
##  3     1 2     orto      803     8     3
##  4     1 2     ocaso    1807    18     7
##  5     1 3     orto      726     7    26
##  6     1 3     ocaso    1841    18    41
##  7     1 4     orto      735     7    35
##  8     1 4     ocaso    2016    20    16
##  9     1 5     orto      649     6    49
## 10     1 5     ocaso    2048    20    48
## # ℹ 720 more rows

Finally, let’s use dplyr::select() to retrieve the columns we need:

table <- table |>
  select(mes, dia, evento, hora, min) |>
  arrange(mes, dia)
table

## # A tibble: 730 × 5
##    mes     dia evento  hora   min
##    <chr> <int> <chr>  <dbl> <dbl>
##  1 1         1 orto       8    17
##  2 1         1 ocaso     17    32
##  3 1         2 orto       8    17
##  4 1         2 ocaso     17    33
##  5 1         3 orto       8    18
##  6 1         3 ocaso     17    34
##  7 1         4 orto       8    18
##  8 1         4 ocaso     17    35
##  9 1         5 orto       8    18
## 10 1         5 ocaso     17    36
## # ℹ 720 more rows
…
