…
The best results are obtained with oversampling. Then, I estract these results with workflowsets::extract_workflow().

over_lr_results <- extract_workflow_set_result(lr_models, 
                                                id = "over_lr")

over_lr_results |>
  collect_metrics()

## # A tibble: 100 × 8
##         penalty mixture .metric  .estimator  mean     n std_err .config         
##           <dbl>   <dbl> <chr>    <chr>      <dbl> <int>   <dbl> <chr>           
##  1 0.0000000001       0 accuracy binary     0.765     6  0.0176 Preprocessor1_M…
##  2 0.0000000001       0 j_index  binary     0.478     6  0.0580 Preprocessor1_M…
##  3 0.0000000001       0 sens     binary     0.701     6  0.0495 Preprocessor1_M…
##  4 0.0000000001       0 spec     binary     0.778     6  0.0147 Preprocessor1_M…
##  5 0.0000000316       0 accuracy binary     0.765     6  0.0176 Preprocessor1_M…
##  6 0.0000000316       0 j_index  binary     0.478     6  0.0580 Preprocessor1_M…
##  7 0.0000000316       0 sens     binary     0.701     6  0.0495 Preprocessor1_M…
##  8 0.0000000316       0 spec     binary     0.778     6  0.0147 Preprocessor1_M…
##  9 0.00001            0 accuracy binary     0.765     6  0.0176 Preprocessor1_M…
## 10 0.00001            0 j_index  binary     0.478     6  0.0580 Preprocessor1_M…
## # ℹ 90 more rows
…
