…
While the bars in a bar chart should extend to zero, a line graph does not need to include zero in the dependent variable axis (Bergstronm and West, 2020:156-157).

In this post, we will see how can plot line and bar charts in ggplot, and how to include a categorical variable in those charts. To do so, I will use a time series of Spanish population data taken from the Instituto Nacional de Estadística (INE).

Line charts to emphasize changes in the dependent variable

Let’s pick a series of population data taken from the Spanish Labor Force Survey:

library(tidyverse) #to load ggplot and dplyr
library(ESdata)    #to get the data
pop_quarterly <- epa_edad %>% 
  filter(region=="ES", edad=="total", sexo=="total", dato=="pob")
pop_quarterly

## # A tibble: 75 x 6
##    periodo    region edad  sexo  dato   valor
##    <date>     <chr>  <chr> <chr> <chr>  <dbl>
##  1 2020-09-30 ES     total total pob   46904.
##  2 2020-06-30 ES     total total pob   46896.
##  3 2020-01-31 ES     total total pob   46874.
##  4 2019-12-31 ES     total total pob   46794.
##  5 2019-09-30 ES     total total pob   46702.
##  6 2019-06-30 ES     total total pob   46599 
##  7 2019-01-31 ES     total total pob   46523.
##  8 2018-12-31 ES     total total pob   46435.
##  9 2018-09-30 ES     total total pob   46326.
## 10 2018-06-30 ES     total total pob   46241 
## # … with 65 more rows
…
<img src="{{< blogdown/postref >}}index_files/figure-html/unnamed-chunk-2-1.png" width="672" />

We observe Spanish population increased steadily from 2004 to approximately 2012, and that has started recovering by 2017 but with a slower pace than the previous growth cycle. Vertical axis ranges between 41 and 46 million people, which is the variation of population for this temporal series.

We are now interested in analyzing the evolution of Spanish population by gender. We need a dataset including the value of male and female Spanish population for each observation:

pop_quarterly_gender <- epa_edad %>% 
  filter(region=="ES", edad=="total", sexo!="total", dato=="pob")
pop_quarterly_gender

## # A tibble: 150 x 6
##    periodo    region edad  sexo    dato   valor
##    <date>     <chr>  <chr> <chr>   <chr>  <dbl>
##  1 2020-09-30 ES     total hombres pob   23016.
##  2 2020-06-30 ES     total hombres pob   23013.
##  3 2020-01-31 ES     total hombres pob   23004.
##  4 2019-12-31 ES     total hombres pob   22966 
##  5 2019-09-30 ES     total hombres pob   22924.
##  6 2019-06-30 ES     total hombres pob   22874.
##  7 2019-01-31 ES     total hombres pob   22836.
##  8 2018-12-31 ES     total hombres pob   22792.
##  9 2018-09-30 ES     total hombres pob   22740.
## 10 2018-06-30 ES     total hombres pob   22699.
## # … with 140 more rows
…
<img src="{{< blogdown/postref >}}index_files/figure-html/unnamed-chunk-6-1.png" width="672" />

With this bar plot, we focus on absolute magnitudes so we put changes in perspective. We realize that the variations of total population are relatively small respect to the total population.

Let’s examine the yearly evolution of Spanish population by gender, building the adequate dataset in long format:

pop_yearly_gender <- epa_edad %>% 
  filter(region=="ES", edad=="total", sexo!="total", dato=="pob") %>%
  mutate(year=year(periodo)) %>%
  group_by(year, sexo) %>%
  summarise(pop = last(valor), .groups = "drop")
pop_yearly_gender

## # A tibble: 38 x 3
##     year sexo       pop
##    <dbl> <chr>    <dbl>
##  1  2002 hombres 20071 
##  2  2002 mujeres 20805.
##  3  2003 hombres 20478 
##  4  2003 mujeres 21158.
##  5  2004 hombres 20837.
##  6  2004 mujeres 21478.
##  7  2005 hombres 21247.
##  8  2005 mujeres 21813.
##  9  2006 hombres 21609.
## 10  2006 mujeres 22136.
## # … with 28 more rows
…
