…
lr <- logistic_reg() %>%
  set_engine("glm")

iris_lr_wf <- workflow() %>%
  add_recipe(iris_recipe) %>%
  add_model(lr)

With predict(iris) we predict the class of each observation:

iris_pred_lr <- iris_lr_wf %>%
  fit(iris) %>%
  predict(iris)
iris_pred_lr

## # A tibble: 150 x 1
##    .pred_class   
##    <fct>         
##  1 not_versicolor
##  2 not_versicolor
##  3 not_versicolor
##  4 not_versicolor
##  5 not_versicolor
##  6 not_versicolor
##  7 not_versicolor
##  8 not_versicolor
##  9 not_versicolor
## 10 not_versicolor
## # … with 140 more rows

In logistic regression, the class of each observation is assigned using its probability to belong to each class. This probability is used to construct the ROC curve, and we can obtain it using predict with type = "prob":

iris_prob_lr <- iris_lr_wf %>%
  fit(iris) %>%
  predict(iris, type = "prob")
iris_prob_lr

## # A tibble: 150 x 2
##    .pred_versicolor .pred_not_versicolor
##               <dbl>                <dbl>
##  1           0.0977                0.902
##  2           0.364                 0.636
##  3           0.195                 0.805
##  4           0.245                 0.755
##  5           0.0658                0.934
##  6           0.0259                0.974
##  7           0.0914                0.909
##  8           0.127                 0.873
##  9           0.367                 0.633
## 10           0.303                 0.697
## # … with 140 more rows
…
