…
Examining influence and leverage

Let’s see how can we obtain Cook’s distance and leverage with the broom package. First we obtain the ordinary least squares estimators of the linear regression model doing:

mod <- lm(y ~ x, data)

The augment function of broom provides additional information for each observation:

variable .hat is equal to leverage.

variable .cooksd is equal to Cook’s distance.

augment(mod)

## # A tibble: 104 x 8
##         y        x .fitted  .resid    .hat .sigma   .cooksd .std.resid
##     <dbl>    <dbl>   <dbl>   <dbl>   <dbl>  <dbl>     <dbl>      <dbl>
##  1 -0.242 -0.750   -0.582   0.341  0.0148   0.734 0.00166       0.470 
##  2  0.306 -0.0872  -0.0303  0.336  0.0100   0.734 0.00108       0.462 
##  3  1.82   1.20     1.04    0.781  0.0163   0.730 0.00962       1.08  
##  4 -0.570 -0.172   -0.101  -0.469  0.0103   0.733 0.00217      -0.645 
##  5 -0.260  0.0230   0.0614 -0.322  0.00974  0.734 0.000962     -0.442 
##  6  1.15   1.28     1.11    0.0381 0.0174   0.734 0.0000245     0.0526
##  7  0.953  0.721    0.642   0.311  0.0115   0.734 0.00107       0.428 
##  8  0.272 -0.248   -0.164   0.436  0.0107   0.733 0.00194       0.600 
##  9 -0.323 -0.00997  0.0339 -0.357  0.00981  0.733 0.00119      -0.491 
## 10  0.752  0.816    0.721   0.0311 0.0122   0.734 0.0000113     0.0428
## # … with 94 more rows
…
