…
Cross Validation with Stretching Windows

To use stretching windows we will use the tsibble::stretch_tsibble() function. Its outcome is a table including each of the tables needed to apply stretching windows, identified with the .id variable. The .init variable sets the length of the first stretching window, here fixed to 12 observations.

adelaide_holiday_stretch <- adelaide_holiday |>
  stretch_tsibble(.init = 12) |>
  relocate(.id)

adelaide_holiday_stretch |>
  group_by(.id) |>
  count() |> 
  slice(1:10)

## # A tibble: 69 × 2
## # Groups:   .id [69]
##      .id     n
##    <int> <int>
##  1     1    12
##  2     2    13
##  3     3    14
##  4     4    15
##  5     5    16
##  6     6    17
##  7     7    18
##  8     8    19
##  9     9    20
## 10    10    21
## # ℹ 59 more rows

We have 69 sliding windows: 80-12 = 68 sliding windows, plus the starting window.

Let’s train an ARIMA(1, 0, 0)(1, 0, 0)4 model on each of the values of .id, and gather parameters of each run with accuracy().

stretch <- adelaide_holiday_stretch |>
  model(ARIMA(Trips ~ 1 + pdq(1, 0, 0) + PDQ(1, 0, 0, period = 4))) |>
  accuracy()

stretch

## # A tibble: 69 × 14
##      .id Region   State Purpose .model .type    ME  RMSE   MAE   MPE  MAPE  MASE
##    <int> <chr>    <chr> <chr>   <chr>  <chr> <dbl> <dbl> <dbl> <dbl> <dbl> <dbl>
##  1     1 Adelaide Sout… Holiday ARIMA… Trai… -4.12  16.8  13.8 -3.54  8.31 1.05 
##  2     2 Adelaide Sout… Holiday ARIMA… Trai… -4.25  17.6  14.2 -3.67  8.55 0.988
##  3     3 Adelaide Sout… Holiday ARIMA… Trai… -4.47  16.7  13.1 -3.70  7.95 1.00 
##  4     4 Adelaide Sout… Holiday ARIMA… Trai… -4.03  16.1  12.6 -3.35  7.71 1.00 
##  5     5 Adelaide Sout… Holiday ARIMA… Trai… -2.74  17.4  13.9 -2.71  8.44 0.979
##  6     6 Adelaide Sout… Holiday ARIMA… Trai… -2.49  16.8  13.0 -2.44  7.94 0.946
##  7     7 Adelaide Sout… Holiday ARIMA… Trai… -3.08  17.2  13.7 -3.06  8.66 0.970
##  8     8 Adelaide Sout… Holiday ARIMA… Trai… -3.54  17.3  13.7 -3.37  8.85 0.927
##  9     9 Adelaide Sout… Holiday ARIMA… Trai… -4.13  19.2  15.0 -4.04  9.97 0.882
## 10    10 Adelaide Sout… Holiday ARIMA… Trai… -4.00  18.7  14.3 -3.86  9.55 0.829
## # ℹ 59 more rows
## # ℹ 2 more variables: RMSSE <dbl>, ACF1 <dbl>
…
Cross Validation with Sliding Windows

For sliding windows we use tsibble::slide_tsibble(), using as parameter the .size of the sliding window.

adelaide_holiday_slide <- adelaide_holiday |>
  slide_tsibble(.size = 12) |>
  relocate(.id)

adelaide_holiday_slide |>
  group_by(.id) |>
  count() |> 
  slice(1:10)

## # A tibble: 69 × 2
## # Groups:   .id [69]
##      .id     n
##    <int> <int>
##  1     1    12
##  2     2    12
##  3     3    12
##  4     4    12
##  5     5    12
##  6     6    12
##  7     7    12
##  8     8    12
##  9     9    12
## 10    10    12
## # ℹ 59 more rows
…
