…
US_airports contains two tables containing node and edge attributes. The dataset contains number of passengers for each airline or carrier, so we could obtain a graph for each Carrier, being an airline airport network. The nodes of an airline airport network are the airports served by the airline, which are connected by a node if there is at least one flight connecting them. Defined in this way, airline airport networks are directed and unweighted, although it is a reasonable simplification to consider them undirected if the time window considered is large enough.

Let’s order carriers by number of flights We can do that because tidygraph allows us to access to node and edge attributes in a tidy way. We access the table of edges with activate(edges). To do grouping and summarizing we need to access the table of edges directly using as_tibble.

US_airports %>%
  activate(edges) %>%
  as_tibble() %>% #we need this to summarise
  group_by(Carrier) %>%
  summarise(flights = n(), .groups = "drop") %>%
  arrange(-flights)

## # A tibble: 118 × 2
##    Carrier                      flights
##    <chr>                          <int>
##  1 Delta Air Lines Inc.            2593
##  2 Southwest Airlines Co.          2253
##  3 SkyWest Airlines Inc.           1181
##  4 Hageland Aviation Service       1046
##  5 United Air Lines Inc.            965
##  6 US Airways Inc.                  906
##  7 Comair Inc.                      884
##  8 Continental Air Lines Inc.       845
##  9 American Eagle Airlines Inc.     765
## 10 American Airlines Inc.           701
## # … with 108 more rows

We find Delta and Southwest in the first place, followed by the unexpected SkyWest and Hageland Aviation Service. These are regional airlines, the later covering routes between Alaskan airports.

Let’s rank airlines by number of passengers.

US_airports %>%
  activate(edges) %>%
  as_tibble() %>% #we need this to summarise
  group_by(Carrier) %>%
  summarise(passengers = sum(Passengers), .groups = "drop") %>%
  arrange(-passengers)

## # A tibble: 118 × 2
##    Carrier                     passengers
##    <chr>                            <dbl>
##  1 Southwest Airlines Co.         9707625
##  2 Delta Air Lines Inc.           7172555
##  3 American Airlines Inc.         5443753
##  4 US Airways Inc.                3811869
##  5 United Air Lines Inc.          3384557
##  6 Continental Air Lines Inc.     2628803
##  7 AirTran Airways Corporation    1965722
##  8 SkyWest Airlines Inc.          1863194
##  9 JetBlue Airways                1796865
## 10 Alaska Airlines Inc.           1324029
## # … with 108 more rows
…
