…
In this post, I present an explanatory model of fuel consumption for the mtcars dataset with high explanatory power. Then, I will present an alternative model using an alternative measure of fuel consumption. This is an example of the role that a good theoretical background can do in exploratory data analysis.

The mtcars dataset presents fuel consumption and ten aspects of automobile design and performance reported on Motor Trend US in 1974. Let’s start loading the tidyverse and presenting mtcars as a tibble.

library(tidyverse)
mtcars <- mtcars |>
  mutate(model = rownames(mtcars))
mtcars <- tibble(mtcars)
mtcars

## # A tibble: 32 × 12
##      mpg   cyl  disp    hp  drat    wt  qsec    vs    am  gear  carb model      
##    <dbl> <dbl> <dbl> <dbl> <dbl> <dbl> <dbl> <dbl> <dbl> <dbl> <dbl> <chr>      
##  1  21       6  160    110  3.9   2.62  16.5     0     1     4     4 Mazda RX4  
##  2  21       6  160    110  3.9   2.88  17.0     0     1     4     4 Mazda RX4 …
##  3  22.8     4  108     93  3.85  2.32  18.6     1     1     4     1 Datsun 710 
##  4  21.4     6  258    110  3.08  3.22  19.4     1     0     3     1 Hornet 4 D…
##  5  18.7     8  360    175  3.15  3.44  17.0     0     0     3     2 Hornet Spo…
##  6  18.1     6  225    105  2.76  3.46  20.2     1     0     3     1 Valiant    
##  7  14.3     8  360    245  3.21  3.57  15.8     0     0     3     4 Duster 360 
##  8  24.4     4  147.    62  3.69  3.19  20       1     0     4     2 Merc 240D  
##  9  22.8     4  141.    95  3.92  3.15  22.9     1     0     4     2 Merc 230   
## 10  19.2     6  168.   123  3.92  3.44  18.3     1     0     4     4 Merc 280   
## # ℹ 22 more rows

Let’s turn all categorical variables into factors:

mtcars <- mtcars |>
  mutate(across(c(cyl, vs:carb), as.factor))
mtcars

## # A tibble: 32 × 12
##      mpg cyl    disp    hp  drat    wt  qsec vs    am    gear  carb  model      
##    <dbl> <fct> <dbl> <dbl> <dbl> <dbl> <dbl> <fct> <fct> <fct> <fct> <chr>      
##  1  21   6      160    110  3.9   2.62  16.5 0     1     4     4     Mazda RX4  
##  2  21   6      160    110  3.9   2.88  17.0 0     1     4     4     Mazda RX4 …
##  3  22.8 4      108     93  3.85  2.32  18.6 1     1     4     1     Datsun 710 
##  4  21.4 6      258    110  3.08  3.22  19.4 1     0     3     1     Hornet 4 D…
##  5  18.7 8      360    175  3.15  3.44  17.0 0     0     3     2     Hornet Spo…
##  6  18.1 6      225    105  2.76  3.46  20.2 1     0     3     1     Valiant    
##  7  14.3 8      360    245  3.21  3.57  15.8 0     0     3     4     Duster 360 
##  8  24.4 4      147.    62  3.69  3.19  20   1     0     4     2     Merc 240D  
##  9  22.8 4      141.    95  3.92  3.15  22.9 1     0     4     2     Merc 230   
## 10  19.2 6      168.   123  3.92  3.44  18.3 1     0     4     4     Merc 280   
## # ℹ 22 more rows
…
