…
## Rows: 280 Columns: 57
## ── Column specification ────────────────────────────────────────────────────────
## Delimiter: ","
## chr (29): CODI_PROVINCIA, PROVINCIA, CODI_MUNICIPI, MUNICIPI, ESTACIO, V01, ...
## dbl (28): CODI_CONTAMINANT, ANY, MES, DIA, H01, H02, H03, H04, H05, H06, H07...
## 
## ℹ Use `spec()` to retrieve the full column specification for this data.
## ℹ Specify the column types or set `show_col_types = FALSE` to quiet this message.

Here is the resulting table.

aq_web

## # A tibble: 280 × 57
##    CODI_PROVINCIA PROVINCIA CODI_MUNICIPI MUNICIPI  ESTACIO CODI_CONTAMINANT
##    <chr>          <chr>     <chr>         <chr>     <chr>              <dbl>
##  1 08             Barcelona 019           Barcelona 043                  999
##  2 08             Barcelona 019           Barcelona 043                  999
##  3 08             Barcelona 019           Barcelona 043                  999
##  4 08             Barcelona 019           Barcelona 043                  999
##  5 08             Barcelona 019           Barcelona 054                  999
##  6 08             Barcelona 019           Barcelona 054                  999
##  7 08             Barcelona 019           Barcelona 054                  999
##  8 08             Barcelona 019           Barcelona 054                  999
##  9 08             Barcelona 019           Barcelona 043                   22
## 10 08             Barcelona 019           Barcelona 043                   22
## # ℹ 270 more rows
## # ℹ 51 more variables: ANY <dbl>, MES <dbl>, DIA <dbl>, H01 <dbl>, V01 <chr>,
## #   H02 <dbl>, V02 <chr>, H03 <dbl>, V03 <chr>, H04 <dbl>, V04 <chr>,
## #   H05 <dbl>, V05 <chr>, H06 <dbl>, V06 <chr>, H07 <dbl>, V07 <chr>,
## #   H08 <dbl>, V08 <chr>, H09 <dbl>, V09 <chr>, H10 <dbl>, V10 <chr>,
## #   H11 <dbl>, V11 <chr>, H12 <dbl>, V12 <chr>, H13 <dbl>, V13 <chr>,
## #   H14 <dbl>, V14 <chr>, H15 <dbl>, V15 <chr>, H16 <dbl>, V16 <chr>, …
…
Redundant information of columns from CODI_PROVINCIA to MUNICIPI.

The VXX columns are not necessary, as they indicate that the data is missing in the corresponding HXX column.

Each row carries information of 24 hourly observations from a pollutant in a specific station. We need to reshape the data as tidy data, so each row presents information about one pollutant measured at a station at a specific hour.

We need a date time variable with the date and time when the information was obtained.

Let’s start cleaning the column names. In this case, this means that all names will be turned into small caps.

aq_web |>
  clean_names()

## # A tibble: 280 × 57
##    codi_provincia provincia codi_municipi municipi  estacio codi_contaminant
##    <chr>          <chr>     <chr>         <chr>     <chr>              <dbl>
##  1 08             Barcelona 019           Barcelona 043                  999
##  2 08             Barcelona 019           Barcelona 043                  999
##  3 08             Barcelona 019           Barcelona 043                  999
##  4 08             Barcelona 019           Barcelona 043                  999
##  5 08             Barcelona 019           Barcelona 054                  999
##  6 08             Barcelona 019           Barcelona 054                  999
##  7 08             Barcelona 019           Barcelona 054                  999
##  8 08             Barcelona 019           Barcelona 054                  999
##  9 08             Barcelona 019           Barcelona 043                   22
## 10 08             Barcelona 019           Barcelona 043                   22
## # ℹ 270 more rows
## # ℹ 51 more variables: any <dbl>, mes <dbl>, dia <dbl>, h01 <dbl>, v01 <chr>,
## #   h02 <dbl>, v02 <chr>, h03 <dbl>, v03 <chr>, h04 <dbl>, v04 <chr>,
## #   h05 <dbl>, v05 <chr>, h06 <dbl>, v06 <chr>, h07 <dbl>, v07 <chr>,
## #   h08 <dbl>, v08 <chr>, h09 <dbl>, v09 <chr>, h10 <dbl>, v10 <chr>,
## #   h11 <dbl>, v11 <chr>, h12 <dbl>, v12 <chr>, h13 <dbl>, v13 <chr>,
## #   h14 <dbl>, v14 <chr>, h15 <dbl>, v15 <chr>, h16 <dbl>, v16 <chr>, …

Then, we are ready to select the columns. Additionnally, I will put the station codes as integer numbers.

aq_web |>
  clean_names() |>
  select(c(estacio:dia, starts_with("h"))) |>
  mutate(estacio = as.numeric(estacio))

## # A tibble: 280 × 29
##    estacio codi_contaminant   any   mes   dia    h01   h02   h03   h04   h05
##      <dbl>            <dbl> <dbl> <dbl> <dbl>  <dbl> <dbl> <dbl> <dbl> <dbl>
##  1      43              999  2025     7    19   21.6  16.7  16.8  15.6  13  
##  2      43              999  2025     7    20   15.5  16.6  18.4  16    14.2
##  3      43              999  2025     7    21   28.7  19.4  18    18.3  11.6
##  4      43              999  2025     7    22   NA    NA    NA    NA    NA  
##  5      54              999  2025     7    19    9.7   8.8   6.9   9.1   9  
##  6      54              999  2025     7    20    7.5   7.8   7.7   7.8   8.4
##  7      54              999  2025     7    21   20.9  15.5  16.6  14.3  11.4
##  8      54              999  2025     7    22   26    14.8  17.3  15.1  11.8
##  9      43               22  2025     7    19  831   583   626   777   530  
## 10      43               22  2025     7    20 1123   715   689   444   419  
## # ℹ 270 more rows
## # ℹ 19 more variables: h06 <dbl>, h07 <dbl>, h08 <dbl>, h09 <dbl>, h10 <dbl>,
## #   h11 <dbl>, h12 <dbl>, h13 <dbl>, h14 <dbl>, h15 <dbl>, h16 <dbl>,
## #   h17 <dbl>, h18 <dbl>, h19 <dbl>, h20 <dbl>, h21 <dbl>, h22 <dbl>,
## #   h23 <dbl>, h24 <dbl>
…
The variable with column names is labelled hora (hour)-

I set names_prefix = "h" so the h is removed from column hora.

The actual value of pollutant is stored in the value column.

aq_web |>
  clean_names() |>
  select(c(estacio:dia, starts_with("h"))) |>
  mutate(estacio = as.numeric(estacio)) |>
  pivot_longer(h01:h24, names_prefix = "h", 
               names_to = "hora", values_to = "value")

## # A tibble: 6,720 × 7
##    estacio codi_contaminant   any   mes   dia hora  value
##      <dbl>            <dbl> <dbl> <dbl> <dbl> <chr> <dbl>
##  1      43              999  2025     7    19 01     21.6
##  2      43              999  2025     7    19 02     16.7
##  3      43              999  2025     7    19 03     16.8
##  4      43              999  2025     7    19 04     15.6
##  5      43              999  2025     7    19 05     13  
##  6      43              999  2025     7    19 06     21.4
##  7      43              999  2025     7    19 07     NA  
##  8      43              999  2025     7    19 08     17.7
##  9      43              999  2025     7    19 09     21.2
## 10      43              999  2025     7    19 10     15.6
## # ℹ 6,710 more rows

Finally, I generate the datetime variable with lubridate::make_datetime() and use dplyr::relocate() to place it after the codi_contaminant column.

aq_web |>
  clean_names() |>
  select(c(estacio:dia, starts_with("h"))) |>
  mutate(estacio = as.numeric(estacio)) |>
  pivot_longer(-c(estacio:dia), names_prefix = "h", 
               names_to = "hora", values_to = "value") |>
  mutate(hora = as.numeric(hora)) |>
  mutate(datetime = make_datetime(year = any, month = mes, day = dia, hour = hora)) |>
  relocate(datetime, .after = codi_contaminant)

## # A tibble: 6,720 × 8
##    estacio codi_contaminant datetime              any   mes   dia  hora value
##      <dbl>            <dbl> <dttm>              <dbl> <dbl> <dbl> <dbl> <dbl>
##  1      43              999 2025-07-19 01:00:00  2025     7    19     1  21.6
##  2      43              999 2025-07-19 02:00:00  2025     7    19     2  16.7
##  3      43              999 2025-07-19 03:00:00  2025     7    19     3  16.8
##  4      43              999 2025-07-19 04:00:00  2025     7    19     4  15.6
##  5      43              999 2025-07-19 05:00:00  2025     7    19     5  13  
##  6      43              999 2025-07-19 06:00:00  2025     7    19     6  21.4
##  7      43              999 2025-07-19 07:00:00  2025     7    19     7  NA  
##  8      43              999 2025-07-19 08:00:00  2025     7    19     8  17.7
##  9      43              999 2025-07-19 09:00:00  2025     7    19     9  21.2
## 10      43              999 2025-07-19 10:00:00  2025     7    19    10  15.6
## # ℹ 6,710 more rows
…
  return(t)
}

I am using purrr:map_dfr() to clean each element of the aq_web_2025 list and to bind the rows of all the tables.

aq_tidy_2025 <- map_dfr(aq_web_2025, clean_aq_table)

Here is the result: a tidy table of air quality data of the first four months of 2025.

aq_tidy_2025

## # A tibble: 199,920 × 8
##    estacio codi_contaminant datetime              any   mes   dia  hora value
##      <dbl>            <dbl> <dttm>              <dbl> <dbl> <dbl> <dbl> <dbl>
##  1       4                7 2025-01-01 01:00:00  2025     1     1     1    13
##  2       4                7 2025-01-01 02:00:00  2025     1     1     2    11
##  3       4                7 2025-01-01 03:00:00  2025     1     1     3     9
##  4       4                7 2025-01-01 04:00:00  2025     1     1     4     7
##  5       4                7 2025-01-01 05:00:00  2025     1     1     5     1
##  6       4                7 2025-01-01 06:00:00  2025     1     1     6     2
##  7       4                7 2025-01-01 07:00:00  2025     1     1     7     1
##  8       4                7 2025-01-01 08:00:00  2025     1     1     8     1
##  9       4                7 2025-01-01 09:00:00  2025     1     1     9     1
## 10       4                7 2025-01-01 10:00:00  2025     1     1    10     2
## # ℹ 199,910 more rows

Examining the Dataset

Now that it is in tidy format, it is easy to examine the data in several ways. For instance, we can check at what dates and stations the daily average value of PM10 codi_contaminant == 10 where higher than 50 µg/m³.

aq_tidy_2025 |>
  filter(codi_contaminant == 10) |>
  mutate(date = as_date(datetime)) |>
  group_by(estacio, date) |>
  summarise(mean_pm10 = mean(value, na.rm = TRUE), .groups = "drop") |>
  arrange(-mean_pm10)

## # A tibble: 720 × 3
##    estacio date       mean_pm10
##      <dbl> <date>         <dbl>
##  1      43 2025-01-22      42.6
##  2      43 2025-03-21      39.5
##  3       4 2025-03-21      38.5
##  4      43 2025-02-05      38.3
##  5      43 2025-01-20      37.5
##  6      57 2025-02-05      37  
##  7      57 2025-04-14      36.8
##  8      57 2025-02-17      36.7
##  9      54 2025-02-06      36.5
## 10      43 2025-02-06      36.5
## # ℹ 710 more rows
…
