…
iind <- iind |>
  rename(region = ...1) |>
  mutate(region = ifelse(region %in% types, "España", region))

Finally, I am using pivot_longer() to present the data as a long table, and update the data type of year to numeric.

iind <- iind |>
  pivot_longer(-c(region, sector), names_to = "year", values_to = "index") |>
  mutate(year = as.numeric(year))
iind

## # A tibble: 1,045 × 4
##    region sector  year index
##    <chr>  <chr>  <dbl> <dbl>
##  1 España TOTAL   2013 3009.
##  2 España TOTAL   2014 3111.
##  3 España TOTAL   2015 3252.
##  4 España TOTAL   2016 3364.
##  5 España TOTAL   2017 3409.
##  6 España TOTAL   2018 3409.
##  7 España TOTAL   2019 3020.
##  8 España TOTAL   2020 2455.
##  9 España TOTAL   2021 2810.
## 10 España TOTAL   2022 2951.
## # ℹ 1,035 more rows
…
