…
  intervals <- intervals |>
    mutate(id = 1:n(),
           result = ifelse(sign(conf.low) == sign(conf.high), "accept", "reject")) |>
    relocate(id)
  
  return(intervals)
}

The outcome of the function looks like:

set.seed(1111)
intervals <- set_intervals()
intervals

## # A tibble: 100 × 6
##       id estimate conf.low conf.high p.value result
##    <int>    <dbl>    <dbl>     <dbl>   <dbl> <chr> 
##  1     1   0.242   0.0225    0.461   0.0310  accept
##  2     2   0.210  -0.00567   0.425   0.0562  reject
##  3     3  -0.0705 -0.250     0.109   0.438   reject
##  4     4  -0.0869 -0.269     0.0952  0.346   reject
##  5     5  -0.0155 -0.215     0.184   0.878   reject
##  6     6  -0.190  -0.373    -0.00657 0.0425  accept
##  7     7  -0.0926 -0.290     0.105   0.354   reject
##  8     8  -0.281  -0.478    -0.0847  0.00549 accept
##  9     9  -0.0622 -0.262     0.138   0.539   reject
## 10    10   0.0850 -0.0901    0.260   0.338   reject
## # ℹ 90 more rows
…
