…
## [1] 0.01118034 0.02236068 0.04472136

The sample values of standard error are close to the population values.

Let’s now plot the distribution of the sample mean. To do so, I will wrap all the values of mean_norm in a single tibble with columns value and name equal to means of each sample and the name of the list of samples, respectively. We obtain that with purrr::map2_dfr():

Being a map2*() function, map2_dfr() takes two lists of vectors as arguments, passed as .x and .y in the formula.

Being a map*_dfr() function, map2_dfr() binds the result into a tibble by row.

norm_table <- map2_dfr(mean_norm, names(mean_norm), ~ tibble(value = .x, name = .y))
norm_table

## # A tibble: 3,000 × 2
##        value name 
##        <dbl> <chr>
##  1  0.00155  sd_05
##  2  0.0108   sd_05
##  3  0.0119   sd_05
##  4 -0.000436 sd_05
##  5  0.00463  sd_05
##  6 -0.00281  sd_05
##  7  0.00336  sd_05
##  8 -0.0106   sd_05
##  9  0.0114   sd_05
## 10 -0.0168   sd_05
## # ℹ 2,990 more rows
…
##    unif_01    unif_02    unif_04 
## 0.01292212 0.02627455 0.05129232

Values of standard errors are close to the population values.

c(2, 4, 8)/sqrt(12*2000)

## [1] 0.01290994 0.02581989 0.05163978

Let’s create the tibble to plot histograms of \(\bar{x}\).

unif_table <- map2_dfr(mean_unif, names(mean_unif), ~ tibble(value = .x, name = .y))
unif_table

## # A tibble: 3,000 × 2
##       value name   
##       <dbl> <chr>  
##  1 -0.00411 unif_01
##  2  0.00394 unif_01
##  3  0.00867 unif_01
##  4 -0.0155  unif_01
##  5 -0.0350  unif_01
##  6 -0.0151  unif_01
##  7  0.00923 unif_01
##  8 -0.00413 unif_01
##  9 -0.00681 unif_01
## 10  0.00407 unif_01
## # ℹ 2,990 more rows
…
