…
nightlife_2024 <- data_2024 |>
  select(nom_local, latitud, longitud, nom_barri, codi_barri, nom_via, porta)

nightlife_2024_sf <- nightlife_2024 |>
  st_as_sf(coords = c("longitud", "latitud"), crs = 4326, remove = FALSE)

nightlife_2024_sf

## Simple feature collection with 242 features and 7 fields
## Geometry type: POINT
## Dimension:     XY
## Bounding box:  xmin: 2.11062 ymin: 41.37241 xmax: 2.200073 ymax: 41.43286
## Geodetic CRS:  WGS 84
## # A tibble: 242 × 8
##    nom_local                 latitud longitud nom_barri codi_barri nom_via porta
##  * <chr>                       <dbl>    <dbl> <chr>          <dbl> <chr>   <dbl>
##  1 LA MOLE BAR MUSICAL          41.4     2.12 Sants - …         17 TORNS      10
##  2 LA TRAVIESA TUSET            41.4     2.15 Sant Ger…         26 TUSET      10
##  3 LA CLAVE                     41.4     2.13 Sants - …         17 SUGRAN…    20
##  4 PEREJIL                      41.4     2.16 el Poble…         11 BLAI       10
##  5 AFTERLIFE ESPORTS GAMER …    41.4     2.14 Sant Ger…         26 MARIÀ …    10
##  6 APOLO                        41.4     2.17 el Poble…         11 NOU DE…    10
##  7 APOLO BAILE                  41.4     2.17 el Poble…         11 NOU DE…    20
##  8 EL GIARDINETTO               41.4     2.15 Sant Ger…         26 GRANAD…    10
##  9 APOLO CASINO                 41.4     2.17 el Poble…         11 NOU DE…    50
## 10 BAR SCHULTZ                  41.4     2.17 la Dreta…          7 BAILÈN     30
## # ℹ 232 more rows
## # ℹ 1 more variable: geometry <POINT [°]>
…
nightlife_2024_sf2 <- nightlife_2024_sf2 |>
  mutate(c_barri = ifelse(is.na(c_barri), codi_barri, c_barri),
         n_barri = ifelse(is.na(c_barri), nom_barri, n_barri))

The neighbourhood code assigned spatially is in c_barri and the code included in the nightlife dataset is in codi_barri. We can appreciate some differences:

nightlife_2024_sf2 |>
  filter(c_barri != codi_barri)

## Simple feature collection with 43 features and 9 fields
## Geometry type: POINT
## Dimension:     XY
## Bounding box:  xmin: 2.127625 ymin: 41.37542 xmax: 2.195337 ymax: 41.43224
## Geodetic CRS:  WGS 84
## # A tibble: 43 × 10
##    nom_local               latitud longitud nom_barri   codi_barri nom_via porta
##  * <chr>                     <dbl>    <dbl> <chr>            <dbl> <chr>   <dbl>
##  1 ALIMENTACIÓ MONK           41.4     2.18 Sant Pere,…          4 ABAIXA…    10
##  2 BLING BLING                41.4     2.15 Sant Gerva…         26 TUSET      20
##  3 RATAFIA                    41.4     2.13 les Tres T…         24 RAFAEL…    20
##  4 ARENA XPERIENCE            41.4     2.17 la Dreta d…          7 RDA SA…    40
##  5 EL PATRÓN SHISHA LOUNGE    41.4     2.14 el Putxet …         27 MANUEL…    10
##  6 ARENA CHICAS               41.4     2.16 la Dreta d…          7 DIPUTA…    20
##  7 IMPERATOR                  41.4     2.16 la Vila de…         31 CÒRSEGA    10
##  8 SALA VIVALDI               41.4     2.15 Sant Antoni         10 LLANÇA     10
##  9 BEACH CLUB                 41.4     2.15 l'Antiga E…          8 VALÈNC…    10
## 10 SCOBIE'S IRISH PUB         41.4     2.17 la Dreta d…          7 RDA UN…    20
## # ℹ 33 more rows
## # ℹ 3 more variables: geometry <POINT [°]>, c_barri <dbl>, n_barri <chr>
…
I will be using two metrics to evaluate the intensity of nightlife in a neighbourhood:

Number of venues.

Venue density, measured in number of venues per square kilometer.

These metrics will be stored in the count_nl table. I am grouping by c_barri and count to obtain venues per neighbourhood.

count_nl <- nightlife_2024_sf2 |>
  st_drop_geometry() |>
  group_by(c_barri) |>
  summarise(venues = n(), .groups = "drop")
count_nl

## # A tibble: 35 × 2
##    c_barri venues
##      <dbl>  <int>
##  1       1     16
##  2       2     23
##  3       3      3
##  4       4     16
##  5       5      3
##  6       6      1
##  7       7     14
##  8       8     11
##  9       9      8
## 10      10      7
## # ℹ 25 more rows
…
