…
Evolution of number of premises opened in each district at 2019 and 2024.

Number of premises relative to area and population.

Clustering analysis to detect zones of high volume of nightlife.

Data Preparation: Nightlife Venues

Here is a view of relevant columns of the 2019 data:

data_2019 |>
  select(nom_local, latitud, longitud, codi_barri:nom_districte)

## # A tibble: 232 × 7
##    nom_local  latitud longitud codi_barri nom_barri codi_districte nom_districte
##    <chr>        <dbl>    <dbl> <chr>      <chr>     <chr>          <chr>        
##  1 BAR SCHUL…    41.4     2.17 07         la Dreta… 02             Eixample     
##  2 L'OVELLA …    41.4     2.19 66         el Parc … 10             Sant Martí   
##  3 APOLO CAS…    41.4     2.17 11         el Poble… 03             Sants-Montju…
##  4 EL GIARDI…    41.4     2.15 26         Sant Ger… 05             Sarrià-Sant …
##  5 DISCOTECA…    41.4     2.19 66         el Parc … 10             Sant Martí   
##  6 BARROKOS …    41.4     2.15 26         Sant Ger… 05             Sarrià-Sant …
##  7 IVY RESTO…    41.4     2.15 26         Sant Ger… 05             Sarrià-Sant …
##  8 APOLO BAI…    41.4     2.17 11         el Poble… 03             Sants-Montju…
##  9 APOLO         41.4     2.17 11         el Poble… 03             Sants-Montju…
## 10 SR LOBO       41.4     2.19 66         el Parc … 10             Sant Martí   
## # ℹ 222 more rows

and of the data of 2024:

data_2024 |>
  select(nom_local, latitud, longitud, codi_barri:nom_districte)

## # A tibble: 242 × 7
##    nom_local  latitud longitud codi_barri nom_barri codi_districte nom_districte
##    <chr>        <dbl>    <dbl>      <dbl> <chr>              <dbl> <chr>        
##  1 LA MOLE B…    41.4     2.12         17 Sants - …              3 Sants-Montju…
##  2 LA TRAVIE…    41.4     2.15         26 Sant Ger…              5 Sarrià-Sant …
##  3 LA CLAVE      41.4     2.13         17 Sants - …              3 Sants-Montju…
##  4 PEREJIL       41.4     2.16         11 el Poble…              3 Sants-Montju…
##  5 AFTERLIFE…    41.4     2.14         26 Sant Ger…              5 Sarrià-Sant …
##  6 APOLO         41.4     2.17         11 el Poble…              3 Sants-Montju…
##  7 APOLO BAI…    41.4     2.17         11 el Poble…              3 Sants-Montju…
##  8 EL GIARDI…    41.4     2.15         26 Sant Ger…              5 Sarrià-Sant …
##  9 APOLO CAS…    41.4     2.17         11 el Poble…              3 Sants-Montju…
## 10 BAR SCHUL…    41.4     2.17          7 la Dreta…              2 Eixample     
## # ℹ 232 more rows
…
