…
<script src="{{< blogdown/postref >}}index_files/kePrint/kePrint.js">
<link href="{{< blogdown/postref >}}index_files/lightable/lightable.css" rel="stylesheet" />

In the previous post, I reported the contributions by country to the 2025 edition of the International Conference for Learning Representations (ICLR). ICLR is one of the world’s premier artificial intelligence and machine learning conferences, focused on representation learning, the study of how computers can automatically learn meaningful and useful representations of data to solve complex tasks. The posts of this series are motivated by the work of Dmytro Lopushanskyy exploring affiliations of the 2025 edition of ICLR.

While the advance of scientific research calls for international collaboration, it can be hindered by the strategic competition between countries to develop the best AI models. To examine the extent to which international collaboration in learning representations is fostered or hindered, in this post I will present a preliminary analysis of the patterns of international collaboration present of the contributions presented in ICLR 2025.

The Network of Scientific Collaboration

To examine between-country collaboration, I will be using the distinct article-country pairs of the conference, obtained from the records of the main conference papers registered in Scopus. Each article is represented by its Scopus eid, and each country by its iso3c code.

## # A tibble: 780 × 2
##    eid                 iso3c
##    <chr>               <chr>
##  1 2-s2.0-105010206394 CHN  
##  2 2-s2.0-105010206394 HKG  
##  3 2-s2.0-85143254100  CHN  
##  4 2-s2.0-85199920132  CHN  
##  5 2-s2.0-105010187547 DEU  
##  6 2-s2.0-85200551272  CHN  
##  7 2-s2.0-85200551272  HKG  
##  8 2-s2.0-85200551272  USA  
##  9 2-s2.0-105010222873 CHE  
## 10 2-s2.0-105010222873 DEU  
## # ℹ 770 more rows
…
