…
I start retrieving total fertility rate with the wbstats::wb_data() function.

tfrt_data <- wb_data("SP.DYN.TFRT.IN", start_date = 2000, end_date = 2022) |>
  select(iso2c:SP.DYN.TFRT.IN)

Let’s see the ten countries with lower fertility rates in years 2000, 2015 and 2022. We can do that using the purrr::walk()function.

walk(c(2000, 2015, 2022), ~ {
  tfrt_data |>
  filter(date == .) |>
  arrange(SP.DYN.TFRT.IN) |>
  print(n = 10)
})

## # A tibble: 217 × 5
##    iso2c iso3c country               date SP.DYN.TFRT.IN
##    <chr> <chr> <chr>                <dbl>          <dbl>
##  1 MO    MAC   Macao SAR, China      2000          0.912
##  2 HK    HKG   Hong Kong SAR, China  2000          1.03 
##  3 UA    UKR   Ukraine               2000          1.12 
##  4 CZ    CZE   Czechia               2000          1.15 
##  5 RU    RUS   Russian Federation    2000          1.20 
##  6 ES    ESP   Spain                 2000          1.22 
##  7 GR    GRC   Greece                2000          1.25 
##  8 LV    LVA   Latvia                2000          1.25 
##  9 BG    BGR   Bulgaria              2000          1.26 
## 10 IT    ITA   Italy                 2000          1.26 
## # ℹ 207 more rows
## # A tibble: 217 × 5
##    iso2c iso3c country                 date SP.DYN.TFRT.IN
##    <chr> <chr> <chr>                  <dbl>          <dbl>
##  1 VG    VGB   British Virgin Islands  2015           1.19
##  2 HK    HKG   Hong Kong SAR, China    2015           1.20
##  3 MO    MAC   Macao SAR, China        2015           1.20
##  4 KR    KOR   Korea, Rep.             2015           1.24
##  5 SG    SGP   Singapore               2015           1.24
##  6 BA    BIH   Bosnia and Herzegovina  2015           1.29
##  7 PT    PRT   Portugal                2015           1.31
##  8 PL    POL   Poland                  2015           1.32
##  9 CY    CYP   Cyprus                  2015           1.33
## 10 GR    GRC   Greece                  2015           1.33
## # ℹ 207 more rows
## # A tibble: 217 × 5
##    iso2c iso3c country                 date SP.DYN.TFRT.IN
##    <chr> <chr> <chr>                  <dbl>          <dbl>
##  1 HK    HKG   Hong Kong SAR, China    2022          0.701
##  2 KR    KOR   Korea, Rep.             2022          0.778
##  3 PR    PRI   Puerto Rico             2022          0.9  
##  4 VG    VGB   British Virgin Islands  2022          1.01 
##  5 SG    SGP   Singapore               2022          1.04 
##  6 MO    MAC   Macao SAR, China        2022          1.11 
##  7 MT    MLT   Malta                   2022          1.15 
##  8 ES    ESP   Spain                   2022          1.16 
##  9 CN    CHN   China                   2022          1.18 
## 10 AW    ABW   Aruba                   2022          1.18 
## # ℹ 207 more rows
…
