…
And the air quality data. The dataset covers the period 2018-2025 and the NO2 and PM10 pollutants.

aq

## # A tibble: 796,797 × 8
##    station pollutant datetime             year month   day  hour value
##      <dbl>     <dbl> <dttm>              <dbl> <dbl> <dbl> <dbl> <dbl>
##  1      50         8 2025-07-27 01:00:00  2025     7    27     1    11
##  2      50         8 2025-07-27 02:00:00  2025     7    27     2    10
##  3      50         8 2025-07-27 03:00:00  2025     7    27     3    15
##  4      50         8 2025-07-27 04:00:00  2025     7    27     4    10
##  5      50         8 2025-07-27 05:00:00  2025     7    27     5     6
##  6      50         8 2025-07-27 06:00:00  2025     7    27     6     9
##  7      50         8 2025-07-27 07:00:00  2025     7    27     7    22
##  8      50         8 2025-07-27 08:00:00  2025     7    27     8    18
##  9      50         8 2025-07-27 09:00:00  2025     7    27     9     9
## 10      50         8 2025-07-27 10:00:00  2025     7    27    10     6
## # ℹ 796,787 more rows
…
