…
The tables of June and July 2019 have only one column. This suggests that the separators of the .csv are the semicolon rather than comma.

Early versions of the dataset have a configuration of 18 columns.

Furthermore, the table of May 2025 is not present in the resource for some reason at the present date. This table is also not available in the website.

I start storing the datasets of 57 columns in the airqual_csv list

airqual_csv <- airqual_all[which(columns == 57)]

Let’s examine one of the datasets with one column:

airqual_all$`2019_07_Juliol_qualitat_aire_BCN.csv`

## # A tibble: 1,053 × 1
##    CODI_PROVINCIA;PROVINCIA;CODI_MUNICIPI;MUNICIPI;ESTACIO;CODI_CONTAMINANT;AN…¹
##    <chr>                                                                        
##  1 08;Barcelona;019;Barcelona;4;7;2019;7;1;1;V;1;V;1;V;1;V;1;V;2;V;5;V;23;V;23;…
##  2 08;Barcelona;019;Barcelona;4;7;2019;7;2;2;V;3;V;3;V;2;V;4;V;6;V;6;V;29;V;24;…
##  3 08;Barcelona;019;Barcelona;4;7;2019;7;3;2;V;2;V;4;V;6;V;5;V;6;V;15;V;40;V;40…
##  4 08;Barcelona;019;Barcelona;4;7;2019;7;4;7;V;4;V;4;V;2;V;2;V;3;V;6;V;16;V;31;…
##  5 08;Barcelona;019;Barcelona;4;7;2019;7;5;1;V;1;V;1;V;2;V;3;V;5;V;11;V;23;V;36…
##  6 08;Barcelona;019;Barcelona;4;7;2019;7;6;3;V;2;V;3;V;3;V;2;V;3;V;4;V;5;V;9;V;…
##  7 08;Barcelona;019;Barcelona;4;7;2019;7;7;12;V;4;V;2;V;1;V;2;V;10;V;11;V;12;V;…
##  8 08;Barcelona;019;Barcelona;4;7;2019;7;8;2;V;2;V;4;V;2;V;1;V;3;V;3;V;21;V;48;…
##  9 08;Barcelona;019;Barcelona;4;7;2019;7;9;9;V;7;V;3;V;2;V;1;V;1;V;2;V;3;V;4;V;…
## 10 08;Barcelona;019;Barcelona;4;7;2019;7;10;2;V;2;V;1;V;1;V;2;V;3;V;2;V;5;V;9;V…
## # ℹ 1,043 more rows
## # ℹ abbreviated name:
## #   ¹​`CODI_PROVINCIA;PROVINCIA;CODI_MUNICIPI;MUNICIPI;ESTACIO;CODI_CONTAMINANT;ANY;MES;DIA;H01;V01;H02;V02;H03;V03;H04;V04;H05;V05;H06;V06;H07;V07;H08;V08;H09;V09;H10;V10;H11;V11;H12;V12;H13;V13;H14;V14;H15;V15;H16;V16;H17;V17;H18;V18;H19;V19;H20;V20;H21;V21;H22;V22;H23;V23;H24;V24`
…
names(airqual_csv2) <- names(airqual_csv[which(columns == 1)])

The tables with 18 columns have a completely different structure.

airqual_all$`2019_02_Febrer_qualitat_aire_BCN.csv`

## # A tibble: 5,376 × 18
##    nom_cabina    qualitat_aire codi_dtes zqa   codi_eoi longitud latitud hora_o3
##    <chr>         <chr>         <chr>     <chr> <chr>       <dbl>   <dbl> <chr>  
##  1 Barcelona - … --            ID        01    08019042     2.13    41.4 <NA>   
##  2 Barcelona - … --            IH        01    08019043     2.15    41.4 <NA>   
##  3 Barcelona - … --            IJ        01    08019044     2.15    41.4 <NA>   
##  4 Barcelona - … --            IL        01    08019050     2.19    41.4 <NA>   
##  5 Barcelona - … --            IN        01    08019054     2.15    41.4 <NA>   
##  6 Barcelona - … --            IZ        01    08019057     2.12    41.4 <NA>   
##  7 Barcelona - … --            I2        01    08019004     2.20    41.4 <NA>   
##  8 Barcelona - … --            OF        01    08019058     2.12    41.4 <NA>   
##  9 Barcelona - … Bona          ID        01    08019042     2.13    41.4 <NA>   
## 10 Barcelona - … Bona          IH        01    08019043     2.15    41.4 0h     
## # ℹ 5,366 more rows
## # ℹ 10 more variables: qualitat_o3 <chr>, valor_o3 <chr>, hora_no2 <chr>,
## #   qualitat_no2 <chr>, valor_no2 <chr>, hora_pm10 <chr>, qualitat_pm10 <chr>,
## #   valor_pm10 <chr>, generat <chr>, dateTime <dbl>
…
  return(t)
}

I am applying the function to all the tables of airqual_csv and wrapping all together in a single table using purrr::map_dfr().

airqual_csv_table <- map_dfr(airqual_csv, clean_aq_table)

Here is the resulting table:

airqual_csv_table

## # A tibble: 3,019,368 × 8
##    estacio codi_contaminant datetime              any   mes   dia  hora value
##      <dbl>            <dbl> <dttm>              <dbl> <dbl> <dbl> <dbl> <dbl>
##  1      43              999 2025-07-24 01:00:00  2025     7    24     1  16.2
##  2      43              999 2025-07-24 02:00:00  2025     7    24     2  17.1
##  3      43              999 2025-07-24 03:00:00  2025     7    24     3  16.8
##  4      43              999 2025-07-24 04:00:00  2025     7    24     4  16.4
##  5      43              999 2025-07-24 05:00:00  2025     7    24     5  18.8
##  6      43              999 2025-07-24 06:00:00  2025     7    24     6  15.8
##  7      43              999 2025-07-24 07:00:00  2025     7    24     7  13.6
##  8      43              999 2025-07-24 08:00:00  2025     7    24     8  12.8
##  9      43              999 2025-07-24 09:00:00  2025     7    24     9  16.1
## 10      43              999 2025-07-24 10:00:00  2025     7    24    10  15.5
## # ℹ 3,019,358 more rows
…
Here is the result of the data cleaning. The column names and types are the same as the airqual_csv_table.

airqual_csv2_table <- map_dfr(airqual_csv2, clean_aq_table2)
airqual_csv2_table

## # A tibble: 53,208 × 8
##    estacio codi_contaminant datetime              any   mes   dia  hora value
##      <dbl>            <dbl> <dttm>              <dbl> <dbl> <dbl> <dbl> <dbl>
##  1       4                7 2019-06-01 01:00:00  2019     6     1     1     7
##  2       4                7 2019-06-01 02:00:00  2019     6     1     2    15
##  3       4                7 2019-06-01 03:00:00  2019     6     1     3     5
##  4       4                7 2019-06-01 04:00:00  2019     6     1     4    28
##  5       4                7 2019-06-01 05:00:00  2019     6     1     5    14
##  6       4                7 2019-06-01 06:00:00  2019     6     1     6     7
##  7       4                7 2019-06-01 07:00:00  2019     6     1     7     9
##  8       4                7 2019-06-01 08:00:00  2019     6     1     8    12
##  9       4                7 2019-06-01 09:00:00  2019     6     1     9    17
## 10       4                7 2019-06-01 10:00:00  2019     6     1    10    32
## # ℹ 53,198 more rows

The elements of airqual_long are harder to tidy:

airqual_long[[1]]

## # A tibble: 5,904 × 18
##    nom_cabina    qualitat_aire codi_dtes zqa   codi_eoi longitud latitud hora_o3
##    <chr>         <chr>         <chr>     <chr> <chr>       <dbl>   <dbl> <chr>  
##  1 Barcelona - … Bona          ID        01    08019042     2.13    41.4 <NA>   
##  2 Barcelona - … Regular       IH        01    08019043     2.15    41.4 23h    
##  3 Barcelona - … Regular       IJ        01    08019044     2.15    41.4 23h    
##  4 Barcelona - … Bona          IL        01    08019050     2.19    41.4 23h    
##  5 Barcelona - … Bona          IN        01    08019054     2.15    41.4 23h    
##  6 Barcelona - … Bona          IZ        01    08019057     2.12    41.4 0h     
##  7 Barcelona - … Bona          I2        01    08019004     2.20    41.4 <NA>   
##  8 Barcelona - … Bona          OF        01    08019058     2.12    41.4 0h     
##  9 Barcelona - … Regular       ID        01    08019042     2.13    41.4 <NA>   
## 10 Barcelona - … Regular       IH        01    08019043     2.15    41.4 0h     
## # ℹ 5,894 more rows
## # ℹ 10 more variables: qualitat_o3 <chr>, valor_o3 <chr>, hora_no2 <chr>,
## #   qualitat_no2 <chr>, valor_no2 <chr>, hora_pm10 <chr>, qualitat_pm10 <chr>,
## #   valor_pm10 <chr>, generat <chr>, dateTime <dbl>
…
  new_table <- new_table |>
    mutate(any = year(datetime), mes = month(datetime),
           dia = day(datetime), hora = hour(datetime)) |>
    select(estacio, codi_contaminant, datetime, any, mes, dia, hora, value)
  
  return(new_table)
  }

The table of February 2019 was totally empty of data, so it has been excluded from treatment. When applying clean_aq_long() some warnings appeared resulting from applying as.numeric() to the column of values, indicating that non-numeric strings have been turned into NA by coertion.

airqual_long_table <- map_dfr(airqual_long[c(1, 4:10)], clean_aq_long)
airqual_long_table

## # A tibble: 125,661 × 8
##    estacio codi_contaminant datetime              any   mes   dia  hora value
##      <dbl>            <dbl> <dttm>              <dbl> <dbl> <int> <int> <dbl>
##  1      42               14 2019-01-01 00:00:00  2019     1     1     0    NA
##  2      43               14 2019-01-01 00:00:00  2019     1     1     0     3
##  3      44               14 2019-01-01 00:00:00  2019     1     1     0     3
##  4      50               14 2019-01-01 00:00:00  2019     1     1     0     2
##  5      54               14 2019-01-01 00:00:00  2019     1     1     0    10
##  6      57               14 2019-01-01 00:00:00  2019     1     1     0     1
##  7       4               14 2019-01-01 00:00:00  2019     1     1     0    NA
##  8      58               14 2019-01-01 00:00:00  2019     1     1     0    86
##  9      42               14 2019-01-01 01:00:00  2019     1     1     1    NA
## 10      43               14 2019-01-01 01:00:00  2019     1     1     1     4
## # ℹ 125,651 more rows
…
Now that we have the three sets of tables turned into a single dataset, it is time to wrap them up with the dplyr::bind_rows() function. It has worked properly because similar data has the same column name and data type in the three tables.

airqual <- bind_rows(airqual_csv_table, airqual_csv2_table, airqual_long_table)

Finally, I am renaming columns so that they are presented in the same language.

airqual <- airqual |>
  rename(station = estacio, pollutant = codi_contaminant, year = any, month = mes, day = dia, hour = hora)

This is the resulting dataset, including air quality data from 2018 to mid 2025.

airqual

## # A tibble: 3,198,237 × 8
##    station pollutant datetime             year month   day  hour value
##      <dbl>     <dbl> <dttm>              <dbl> <dbl> <dbl> <dbl> <dbl>
##  1      43       999 2025-07-24 01:00:00  2025     7    24     1  16.2
##  2      43       999 2025-07-24 02:00:00  2025     7    24     2  17.1
##  3      43       999 2025-07-24 03:00:00  2025     7    24     3  16.8
##  4      43       999 2025-07-24 04:00:00  2025     7    24     4  16.4
##  5      43       999 2025-07-24 05:00:00  2025     7    24     5  18.8
##  6      43       999 2025-07-24 06:00:00  2025     7    24     6  15.8
##  7      43       999 2025-07-24 07:00:00  2025     7    24     7  13.6
##  8      43       999 2025-07-24 08:00:00  2025     7    24     8  12.8
##  9      43       999 2025-07-24 09:00:00  2025     7    24     9  16.1
## 10      43       999 2025-07-24 10:00:00  2025     7    24    10  15.5
## # ℹ 3,198,227 more rows
…
pm10_episodes <- airqual |>
  filter(pollutant == 10) |>
  mutate(date = as_date(datetime)) |>
  group_by(date, station) |>
  summarise(pm10 = mean(value, na.rm = TRUE), .groups = "drop") |>
  filter(pm10 >= 50) |>
  group_by(date) |>
  summarise(n = n()) |>
  filter(n > 1) |>
  arrange(-n)

pm10_episodes

## # A tibble: 46 × 2
##    date           n
##    <date>     <int>
##  1 2019-12-17     6
##  2 2019-12-18     6
##  3 2020-02-29     6
##  4 2020-10-22     6
##  5 2021-02-06     6
##  6 2021-08-14     6
##  7 2023-07-11     6
##  8 2019-06-28     5
##  9 2020-01-24     5
## 10 2020-10-21     5
## # ℹ 36 more rows
…
