…
graph <- as_tbl_graph(network)

I will present arc capacity between parentheses as edge labels, creating the label1 variable in edges:

graph <- graph |>
  activate(edges) |>
  mutate(label1 = paste0("(", cap, ")"))
graph

## # A tbl_graph: 7 nodes and 11 edges
## #
## # A directed acyclic simple graph with 1 component
## #
## # A tibble: 11 × 4
##    from    to   cap label1
##   <int> <int> <dbl> <chr> 
## 1     1     2     3 (3)   
## 2     1     3     5 (5)   
## 3     1     4     3 (3)   
## 4     2     5     3 (3)   
## 5     3     5     3 (3)   
## 6     4     2     2 (2)   
## # ℹ 5 more rows
## #
## # A tibble: 7 × 1
##   name 
##   <chr>
## 1 s    
## 2 2    
## 3 3    
## # ℹ 4 more rows
…
