…
Now we need to set the correct type for each column and to replicate the table five times to have five runs for each combination.

grid_res3 <- tibble(grid_res3) |>
  mutate(across(everything(), as.character)) |>
  mutate(across(pcross:pmut, as.numeric),
         elitist = as.logical(elitist))

grid <- map_dfr(1:5, ~ grid_res3 |> mutate(run = .))

The resulting grid is:

grid

## # A tibble: 40 × 7
##    selection  crossover mutation pcross  pmut elitist   run
##    <chr>      <chr>     <chr>     <dbl> <dbl> <lgl>   <int>
##  1 prob       pmx       inv         1     0.3 TRUE        1
##  2 tournament pmx       scramble    0.8   0.3 FALSE       1
##  3 tournament ox        inv         1     0.6 FALSE       1
##  4 prob       ox        inv         0.8   0.3 FALSE       1
##  5 prob       ox        scramble    0.8   0.6 TRUE        1
##  6 prob       pmx       scramble    1     0.6 FALSE       1
##  7 tournament pmx       inv         0.8   0.6 TRUE        1
##  8 tournament ox        scramble    1     0.3 TRUE        1
##  9 prob       pmx       inv         1     0.3 TRUE        2
## 10 tournament pmx       scramble    0.8   0.3 FALSE       2
## # ℹ 30 more rows
…
As the results of the fractional factorial are aliased with interactions of two factors, I have decided to run a full factorial experiment with the selection and mutation operators and levels of pmut as factors. I have fixed the values of the crossover operator to pmx, probability of crossover to 0.8 and set elitism to FALSE.

The grid of a full factorial can be obtained with tidyr::expand_grid():

small_grid <- expand_grid(
  selection = c("prob", "tournament"),
  mutation = c("scramble", "inv"),
  pmut = c(0.3, 0.6)
)

small_grid <- map_dfr(1:5, ~ small_grid |> mutate(run = .))
small_grid

## # A tibble: 40 × 4
##    selection  mutation  pmut   run
##    <chr>      <chr>    <dbl> <int>
##  1 prob       scramble   0.3     1
##  2 prob       scramble   0.6     1
##  3 prob       inv        0.3     1
##  4 prob       inv        0.6     1
##  5 tournament scramble   0.3     1
##  6 tournament scramble   0.6     1
##  7 tournament inv        0.3     1
##  8 tournament inv        0.6     1
##  9 prob       scramble   0.3     2
## 10 prob       scramble   0.6     2
## # ℹ 30 more rows
…
