…
glance(test_kmeans) # performance metrics

## # A tibble: 1 × 4
##   totss tot.withinss betweenss  iter
##   <dbl>        <dbl>     <dbl> <int>
## 1 0.128       0.0338    0.0938     3

augment(test_kmeans, data = nl_coords) # assigns cluster variable

## # A tibble: 241 × 3
##    longitud latitud .cluster
##       <dbl>   <dbl> <fct>   
##  1     2.15    41.4 2       
##  2     2.13    41.4 2       
##  3     2.16    41.4 1       
##  4     2.14    41.4 2       
##  5     2.17    41.4 1       
##  6     2.17    41.4 1       
##  7     2.15    41.4 2       
##  8     2.17    41.4 1       
##  9     2.17    41.4 4       
## 10     2.13    41.4 2       
## # ℹ 231 more rows
…
