…
38.12522

0.9927314

0.8541796

0.0345045

We observe that the fit of m02 and m03 is exactly the same.

The parameter estimates are presented as a data table with lavaan, but broom::tidy presents them in a better way as a tibble:

tidy(fit_m03)

## # A tibble: 34 × 9
##    term        op    estimate std.error stati…¹   p.value std.lv std.all std.nox
##    <chr>       <chr>    <dbl>     <dbl>   <dbl>     <dbl>  <dbl>   <dbl>   <dbl>
##  1 ind60 =~ x1 =~        1        0       NA    NA         0.670   0.920   0.920
##  2 ind60 =~ x2 =~        2.18     0.139   15.7   0         1.46    0.973   0.973
##  3 ind60 =~ x3 =~        1.82     0.152   12.0   0         1.22    0.872   0.872
##  4 dem60 =~ y1 =~        1        0       NA    NA         2.22    0.850   0.850
##  5 dem60 =~ y2 =~        1.26     0.182    6.89  5.64e-12  2.79    0.717   0.717
##  6 dem60 =~ y3 =~        1.06     0.151    6.99  2.81e-12  2.35    0.722   0.722
##  7 dem60 =~ y4 =~        1.26     0.145    8.72  0         2.81    0.846   0.846
##  8 dem65 =~ y5 =~        1        0       NA    NA         2.10    0.808   0.808
##  9 dem65 =~ y6 =~        1.19     0.169    7.02  2.16e-12  2.49    0.746   0.746
## 10 dem65 =~ y7 =~        1.28     0.160    8.00  1.33e-15  2.69    0.824   0.824
## # … with 24 more rows, and abbreviated variable name ¹​statistic
…
