…
In this post, I will present a workflow to produce two line plots at the same ggplot graph representing different magnitudes. These plots are called dual axis plots, double Y axis plots, dual-scale data plots or superimposed plots Then, we will point out why this is a bad idea and present an alternative in form of side-by-side charts.

As we are using ggplot, I will load the tidyverse to access data manipulation functions.

library(tidyverse)

As an example, I will be using the economics dataset. It is included with the ggplot2 package and presents some US macroeconomic data as a time series.

economics

## # A tibble: 574 × 6
##    date         pce    pop psavert uempmed unemploy
##    <date>     <dbl>  <dbl>   <dbl>   <dbl>    <dbl>
##  1 1967-07-01  507. 198712    12.6     4.5     2944
##  2 1967-08-01  510. 198911    12.6     4.7     2945
##  3 1967-09-01  516. 199113    11.9     4.6     2958
##  4 1967-10-01  512. 199311    12.9     4.9     3143
##  5 1967-11-01  517. 199498    12.8     4.7     3066
##  6 1967-12-01  525. 199657    11.8     4.8     3018
##  7 1968-01-01  531. 199808    11.7     5.1     2878
##  8 1968-02-01  534. 199920    12.3     4.5     3001
##  9 1968-03-01  544. 200056    11.7     4.1     2877
## 10 1968-04-01  544  200208    12.3     4.6     2709
## # ℹ 564 more rows
…
