…
These four mutating joins are implemented in dplyr with the functions inner_join, full_join, left_join and right_join.

Getting data from the World Bank

Let’s use the wbstats package to retrieve values of two series:

The SP.POP.TOTL indicator of total population https://data.worldbank.org/indicator/SP.POP.TOTL

The SP.DYN.TFRT.INof total fertility rate in rates per woman https://data.worldbank.org/indicator/SP.DYN.TFRT.IN

pop_wb <- wb_data("SP.POP.TOTL", start_date = 2000, end_date = 2022)
pop_wb

## # A tibble: 4,557 × 9
##    iso2c iso3c country   date SP.POP.TOTL unit  obs_status footnote last_updated
##    <chr> <chr> <chr>    <dbl>       <dbl> <chr> <chr>      <chr>    <date>      
##  1 AF    AFG   Afghani…  2020    38928341 <NA>  <NA>       <NA>     2022-02-15  
##  2 AF    AFG   Afghani…  2019    38041757 <NA>  <NA>       <NA>     2022-02-15  
##  3 AF    AFG   Afghani…  2018    37171922 <NA>  <NA>       <NA>     2022-02-15  
##  4 AF    AFG   Afghani…  2017    36296111 <NA>  <NA>       <NA>     2022-02-15  
##  5 AF    AFG   Afghani…  2016    35383028 <NA>  <NA>       <NA>     2022-02-15  
##  6 AF    AFG   Afghani…  2015    34413603 <NA>  <NA>       <NA>     2022-02-15  
##  7 AF    AFG   Afghani…  2014    33370804 <NA>  <NA>       <NA>     2022-02-15  
##  8 AF    AFG   Afghani…  2013    32269592 <NA>  <NA>       <NA>     2022-02-15  
##  9 AF    AFG   Afghani…  2012    31161378 <NA>  <NA>       <NA>     2022-02-15  
## 10 AF    AFG   Afghani…  2011    30117411 <NA>  <NA>       <NA>     2022-02-15  
## # … with 4,547 more rows

tfrt_wb <- wb_data("SP.DYN.TFRT.IN", start_date = 2000, end_date = 2022)
tfrt_wb

## # A tibble: 4,557 × 9
##    iso2c iso3c country  date SP.DYN.TFRT.IN unit  obs_status footnote
##    <chr> <chr> <chr>   <dbl>          <dbl> <chr> <chr>      <chr>   
##  1 AW    ABW   Aruba    2000           1.87 <NA>  <NA>       <NA>    
##  2 AW    ABW   Aruba    2001           1.85 <NA>  <NA>       <NA>    
##  3 AW    ABW   Aruba    2002           1.82 <NA>  <NA>       <NA>    
##  4 AW    ABW   Aruba    2003           1.80 <NA>  <NA>       <NA>    
##  5 AW    ABW   Aruba    2004           1.79 <NA>  <NA>       <NA>    
##  6 AW    ABW   Aruba    2005           1.77 <NA>  <NA>       <NA>    
##  7 AW    ABW   Aruba    2006           1.76 <NA>  <NA>       <NA>    
##  8 AW    ABW   Aruba    2007           1.76 <NA>  <NA>       <NA>    
##  9 AW    ABW   Aruba    2008           1.76 <NA>  <NA>       <NA>    
## 10 AW    ABW   Aruba    2009           1.76 <NA>  <NA>       <NA>    
## # … with 4,547 more rows, and 1 more variable: last_updated <date>
…
Both tables have different number of observations:

pop_2010 has 217 rows.

tfrt_2010 has 201 rows.

It is important to track the number of rows of each table to examine the effect of each join. Let’s begin with the inner join. Like in the rest of joins, I have declared the joining columns with by. If no value of by is passed, the functions pick the columns of equal name in both tables.

inner_2010 <- inner_join(pop_2010, 
                         tfrt_2010, 
                         by = "country")
inner_2010

## # A tibble: 201 × 3
##    country             population fertility
##    <chr>                    <dbl>     <dbl>
##  1 Afghanistan           29185511      5.98
##  2 Albania                2913021      1.66
##  3 Algeria               35977451      2.86
##  4 Andorra                  84454      1.27
##  5 Angola                23356247      6.19
##  6 Antigua and Barbuda      88030      1.99
##  7 Argentina             40788453      2.35
##  8 Armenia                2877314      1.72
##  9 Aruba                   101665      1.77
## 10 Australia             22031750      1.93
## # … with 191 more rows

The inner join will have the least rows of all joins, as it only includes values of the joining columns present in both tables. It has 201 rows, the same as tfrt_2010.

full_2010 <- full_join(pop_2010, 
                       tfrt_2010, 
                       by = "country")
full_2010

## # A tibble: 217 × 3
##    country             population fertility
##    <chr>                    <dbl>     <dbl>
##  1 Afghanistan           29185511      5.98
##  2 Albania                2913021      1.66
##  3 Algeria               35977451      2.86
##  4 American Samoa           56084     NA   
##  5 Andorra                  84454      1.27
##  6 Angola                23356247      6.19
##  7 Antigua and Barbuda      88030      1.99
##  8 Argentina             40788453      2.35
##  9 Armenia                2877314      1.72
## 10 Aruba                   101665      1.77
## # … with 207 more rows
…
## # A tibble: 0 × 3
## # … with 3 variables: country <chr>, population <dbl>, fertility <dbl>

We observe that some countries that have populations have not fertility rate records, but not in reverse.

Left and rigth joins will have the same rows of the left and right tables in the join expression, respectively.

left_2010 <- left_join(pop_2010, 
                       tfrt_2010, 
                       by = "country")
left_2010

## # A tibble: 217 × 3
##    country             population fertility
##    <chr>                    <dbl>     <dbl>
##  1 Afghanistan           29185511      5.98
##  2 Albania                2913021      1.66
##  3 Algeria               35977451      2.86
##  4 American Samoa           56084     NA   
##  5 Andorra                  84454      1.27
##  6 Angola                23356247      6.19
##  7 Antigua and Barbuda      88030      1.99
##  8 Argentina             40788453      2.35
##  9 Armenia                2877314      1.72
## 10 Aruba                   101665      1.77
## # … with 207 more rows

right_2010 <- right_join(pop_2010, 
                         tfrt_2010, 
                         by = "country")
right_2010

## # A tibble: 201 × 3
##    country             population fertility
##    <chr>                    <dbl>     <dbl>
##  1 Afghanistan           29185511      5.98
##  2 Albania                2913021      1.66
##  3 Algeria               35977451      2.86
##  4 Andorra                  84454      1.27
##  5 Angola                23356247      6.19
##  6 Antigua and Barbuda      88030      1.99
##  7 Argentina             40788453      2.35
##  8 Armenia                2877314      1.72
##  9 Aruba                   101665      1.77
## 10 Australia             22031750      1.93
## # … with 191 more rows
…
right

4017

Now the inner table has less rows than tfrt, while the full table has more rows than pop. This means that there are observations in pop missing in tfrt, and vice versa.

Filtering join

To check which observations of one table are missing in the other, we can use the anti_join filtering join: anti_join(x, y) returns observations of x with no match in y.

We can see which elements of pop are not present in tfrt doing:

anti_join(pop, tfrt, by = c("country", "date"))

## # A tibble: 539 × 3
##    country         date population
##    <chr>          <dbl>      <dbl>
##  1 Afghanistan     2020   38928341
##  2 Albania         2020    2837743
##  3 Algeria         2020   43851043
##  4 American Samoa  2020      55197
##  5 American Samoa  2019      55312
##  6 American Samoa  2018      55461
##  7 American Samoa  2017      55617
##  8 American Samoa  2016      55739
##  9 American Samoa  2015      55806
## 10 American Samoa  2014      55791
## # … with 529 more rows
…
