…
sonar_pca <- training(sonar_split) |>
  recipe(Class ~ .) |>
  step_center(all_numeric_predictors()) |>
  step_scale(all_numeric_predictors()) |>
  step_pca(all_numeric_predictors(),
           threshold = 0.8, prefix = "pc_")

If we examine the dataset obtained by the recipe, we observe that now we have 13 explanatory variables instead of 60.

sonar_pca |>
  prep() |>
  juice()

## # A tibble: 165 × 14
##    Class   pc_01 pc_02  pc_03  pc_04 pc_05  pc_06   pc_07  pc_08  pc_09  pc_10
##    <fct>   <dbl> <dbl>  <dbl>  <dbl> <dbl>  <dbl>   <dbl>  <dbl>  <dbl>  <dbl>
##  1 M     -6.16   1.62   3.05   1.90  -1.30  2.60  -1.69    1.91   4.37  -0.890
##  2 M     -4.89   7.04   1.06   5.07  -6.82  3.26  -1.38    6.27  -3.17   3.11 
##  3 M     -2.25   1.81   2.26   2.11  -2.73 -1.30   0.302  -0.689  2.29  -2.75 
##  4 M      0.147  8.17   2.89   0.812 -3.45 -2.50   0.0674  1.22  -1.51  -2.07 
##  5 M     -0.550  6.76   3.23   1.75  -1.63 -2.56  -0.127   1.09  -1.96  -1.02 
##  6 M      2.54   4.95   4.05  -0.808  1.85 -3.19  -0.508  -0.433 -1.14  -2.72 
##  7 M      0.0944 1.38   2.64   2.10   2.62  0.292  0.284   0.722 -0.465  0.193
##  8 M      0.548  2.42   2.29   1.19   2.59  1.31  -1.56    1.18  -0.302 -0.108
##  9 M      1.51   2.59   3.03   1.18   2.72  1.38   0.138   0.412 -0.342 -1.27 
## 10 M      1.12   0.865 -0.320  3.55   2.77  1.63   0.658  -0.653  0.538  1.48 
## # ℹ 155 more rows
## # ℹ 3 more variables: pc_11 <dbl>, pc_12 <dbl>, pc_13 <dbl>
…
